2019-05-06T16:22:01+00:00 CRITICAL Call to a member function get_variation_attributes() on string in /Users/Goplek18/projects/inksumos-store/wp-content/themes/inksumos/template-parts/section-content-products.php on line 29

2019-05-06T16:33:00+00:00 CRITICAL Call to a member function get_variation_attributes() on string in /Users/Goplek18/projects/inksumos-store/wp-content/themes/inksumos/template-parts/section-content-products.php on line 26

2019-05-06T17:39:34+00:00 CRITICAL Call to a member function get_available_variations() on string in /Users/Goplek18/projects/inksumos-store/wp-content/themes/inksumos/template-parts/section-content-products.php on line 26

2019-05-06T17:40:04+00:00 CRITICAL Call to a member function get_available_variations() on string in /Users/Goplek18/projects/inksumos-store/wp-content/themes/inksumos/template-parts/section-content-products.php on line 26

2019-05-06T18:02:30+00:00 CRITICAL Call to a member function get_available_variations() on string in /Users/Goplek18/projects/inksumos-store/wp-content/themes/inksumos/template-parts/section-content-products.php on line 27

2019-05-06T18:12:20+00:00 CRITICAL Call to a member function get_available_variation() on string in /Users/Goplek18/projects/inksumos-store/wp-content/themes/inksumos/template-parts/section-content-products.php on line 21

2019-05-06T18:34:54+00:00 CRITICAL Call to a member function get_children() on string in /Users/Goplek18/projects/inksumos-store/wp-content/themes/inksumos/template-parts/section-content-products.php on line 21

2019-05-06T18:36:03+00:00 CRITICAL Call to a member function get_children() on string in /Users/Goplek18/projects/inksumos-store/wp-content/themes/inksumos/template-parts/section-content-products.php on line 21

2019-05-06T19:18:17+00:00 CRITICAL Call to a member function get_children() on string in /Users/Goplek18/projects/inksumos-store/wp-content/themes/inksumos/template-parts/section-content-products.php on line 21

2019-05-06T19:20:23+00:00 CRITICAL Call to a member function get_children() on string in /Users/Goplek18/projects/inksumos-store/wp-content/themes/inksumos/template-parts/section-content-products.php on line 21

2019-05-06T19:20:27+00:00 CRITICAL Call to a member function get_children() on string in /Users/Goplek18/projects/inksumos-store/wp-content/themes/inksumos/template-parts/section-content-products.php on line 21

2019-05-06T19:20:29+00:00 CRITICAL Call to a member function get_children() on string in /Users/Goplek18/projects/inksumos-store/wp-content/themes/inksumos/template-parts/section-content-products.php on line 21

2019-05-06T19:20:37+00:00 CRITICAL Call to a member function get_variation_attributes() on null in /Users/Goplek18/projects/inksumos-store/wp-content/themes/inksumos/template-parts/section-content-products.php on line 32

2019-05-06T19:26:59+00:00 CRITICAL Call to undefined method WC_Product_Simple::get_variation_attributes() in /Users/Goplek18/projects/inksumos-store/wp-content/themes/inksumos/template-parts/section-content-products.php on line 117

2019-05-06T19:27:32+00:00 CRITICAL Call to undefined method WC_Product_Simple::get_variation_attributes() in /Users/Goplek18/projects/inksumos-store/wp-content/themes/inksumos/template-parts/section-content-products.php on line 117

2019-05-06T19:31:30+00:00 CRITICAL Call to undefined method WC_Product_Simple::get_available_variations() in /Users/Goplek18/projects/inksumos-store/wp-content/themes/inksumos/template-parts/section-content-products.php on line 125

2019-05-06T21:41:30+00:00 CRITICAL Call to undefined method WC_Product_Simple::get_available_variations() in /Users/Goplek18/projects/inksumos-store/wp-content/themes/inksumos/template-parts/section-content-products.php on line 125

2019-05-06T21:42:45+00:00 CRITICAL Call to undefined method WC_Product_Simple::get_available_variations() in /Users/Goplek18/projects/inksumos-store/wp-content/themes/inksumos/template-parts/section-content-products.php on line 125

2019-05-06T22:20:35+00:00 CRITICAL Call to undefined method WC_Product_Simple::get_variation_attributes() in /Users/Goplek18/projects/inksumos-store/wp-content/themes/inksumos/template-parts/section-content-products.php on line 124

2019-05-06T22:22:32+00:00 CRITICAL Call to undefined method WC_Product_Simple::get_variation_attributes() in /Users/Goplek18/projects/inksumos-store/wp-content/themes/inksumos/template-parts/section-content-products.php on line 124

2019-05-06T22:24:36+00:00 CRITICAL Call to undefined method WC_Product_Simple::get_variation_attributes() in /Users/Goplek18/projects/inksumos-store/wp-content/themes/inksumos/template-parts/section-content-products.php on line 124

2019-05-06T22:48:38+00:00 CRITICAL Cannot access protected property WC_Product_Attribute::$data in /Users/Goplek18/projects/inksumos-store/wp-content/themes/inksumos/template-parts/section-content-products.php on line 128

2019-05-06T23:12:21+00:00 CRITICAL Call to undefined method WP_Post::get_attributes() in /Users/Goplek18/projects/inksumos-store/wp-content/themes/inksumos/template-parts/section-content-products.php on line 126

2019-05-06T23:13:55+00:00 CRITICAL Call to a member function get_taxonomy() on array in /Users/Goplek18/projects/inksumos-store/wp-content/themes/inksumos/template-parts/section-content-products.php on line 127

2019-05-06T23:22:13+00:00 CRITICAL Call to undefined method WC_Product_Attribute::get_names() in /Users/Goplek18/projects/inksumos-store/wp-content/themes/inksumos/template-parts/section-content-products.php on line 130

2019-05-06T23:30:17+00:00 CRITICAL Call to undefined method WC_Product_Attribute::get_names() in /Users/Goplek18/projects/inksumos-store/wp-content/themes/inksumos/template-parts/section-content-products.php on line 130

