<?xml version="1.0" standalone="no"?>
<!DOCTYPE svg PUBLIC "-//W3C//DTD SVG 1.1//EN" "http://www.w3.org/Graphics/SVG/1.1/DTD/svg11.dtd" >
<svg>
<metadata>
Created by FontForge 20120731 at Thu May 23 19:05:22 2019
 By www-data
HTF Gotham  Copr. 2000 The Hoefler Type Foundry, Inc. Info: www.typography.com
</metadata>
<defs>
<font id="GothamMedium" horiz-adv-x="500" >
  <font-face 
    font-family="Gotham Medium"
    font-weight="500"
    font-stretch="normal"
    units-per-em="1000"
    panose-1="2 0 6 3 3 0 0 2 0 4"
    ascent="800"
    descent="-200"
    x-height="528"
    cap-height="700"
    bbox="-70 -165.029 1180 922"
    underline-thickness="20"
    underline-position="-113"
    unicode-range="U+0020-FB02"
  />
<missing-glyph 
 />
    <glyph glyph-name="fi" unicode="fi" horiz-adv-x="662" 
d="M459 528h121v-528h-121v528zM103 424h-67v101h67v38q0 88 43 131q42 42 119 42q32 0 55 -4t43 -10v-102q-18 6 -34.5 9.5t-36.5 3.5q-70 0 -70 -80v-29h140v-100h-138v-424h-121v424zM454 724h130v-115h-130v115z" />
    <glyph glyph-name="fl" unicode="fl" horiz-adv-x="662" 
d="M459 730h121v-730h-121v730zM103 424h-67v101h67v38q0 88 43 131q42 42 119 42q32 0 55 -4t43 -10v-102q-18 6 -34.5 9.5t-36.5 3.5q-70 0 -70 -80v-29h140v-100h-138v-424h-121v424z" />
    <glyph glyph-name=".notdef" 
 />
    <glyph glyph-name="NUL" horiz-adv-x="0" 
 />
    <glyph glyph-name="nonmarkingreturn" horiz-adv-x="300" 
 />
    <glyph glyph-name="space" unicode=" " horiz-adv-x="300" 
 />
    <glyph glyph-name="exclam" unicode="!" horiz-adv-x="302" 
d="M85 137h133v-137h-133v137zM80 665v35h142v-35l-37 -444h-67z" />
    <glyph glyph-name="quotedbl" unicode="&#x22;" horiz-adv-x="487" 
d="M83 700h137v-5l-97 -294h-63zM303 700h137v-5l-98 -294h-63z" />
    <glyph glyph-name="numbersign" unicode="#" horiz-adv-x="700" 
d="M417 265l30 174h-164l-30 -174h164zM129 161h-90v104h108l29 174h-100v104h118l27 157h107l-27 -157h164l26 157h107l-27 -157h89v-104h-107l-29 -174h100v-104h-118l-28 -161h-107l28 161h-164l-27 -161h-107z" />
    <glyph glyph-name="dollar" unicode="$" horiz-adv-x="642" 
d="M368 102q48 4 73.5 26.5t25.5 58.5v2q0 33 -20.5 55t-78.5 39v-181zM289 599q-48 -4 -72 -27t-24 -56v-2q0 -31 19 -52.5t77 -38.5v176zM285 2q-66 8 -125.5 33t-110.5 66l64 91q43 -35 85 -56.5t91 -29.5v196q-110 28 -162 74.5t-52 130.5v2q0 40 15 73.5t43 58.5
t66.5 40t85.5 19v58h87v-60q55 -7 100.5 -26t87.5 -50l-56 -94q-65 49 -136 64v-190q114 -29 165.5 -77.5t51.5 -128.5v-2q0 -41 -15.5 -74.5t-43.5 -58.5t-67 -40.5t-87 -19.5v-99h-87v100z" />
    <glyph glyph-name="percent" unicode="%" horiz-adv-x="849" 
d="M637 69q35 0 55 29.5t20 70.5v2q0 42 -21.5 72t-55.5 30q-35 0 -55 -29.5t-20 -70.5v-2q0 -43 21.5 -72.5t55.5 -29.5zM214 427q35 0 55 29.5t20 70.5v2q0 42 -21.5 72t-55.5 30q-35 0 -55 -29.5t-20 -70.5v-2q0 -43 21.5 -72.5t55.5 -29.5zM635 -8q-37 0 -67 14
t-51.5 38.5t-33.5 56.5t-12 68v2q0 36 12 68.5t34 57t52.5 39t67.5 14.5t67 -14t51.5 -38.5t33.5 -56.5t12 -68v-2q0 -36 -12 -68.5t-34 -57t-52.5 -39t-67.5 -14.5zM631 700h99l-512 -700h-99zM212 350q-37 0 -67 14t-51.5 38.5t-33.5 56.5t-12 68v2q0 36 12 68.5t34 57
t52.5 39t67.5 14.5t67 -14t51.5 -38.5t33.5 -56.5t12 -68v-2q0 -36 -12 -68.5t-34 -57t-52.5 -39t-67.5 -14.5z" />
    <glyph glyph-name="ampersand" unicode="&#x26;" horiz-adv-x="696" 
d="M280 92q36 0 69 16t63 45l-156 159q-49 -21 -71 -51.5t-22 -64.5v-2q0 -45 33 -73.5t84 -28.5zM298 425q54 20 82 45.5t28 63.5v2q0 35 -22.5 57t-57.5 22q-38 0 -60.5 -23.5t-22.5 -60.5v-2q0 -26 12 -49t41 -55zM482 81q-45 -42 -98 -66.5t-117 -24.5q-49 0 -90.5 14
t-72 40.5t-48 63.5t-17.5 82v2q0 68 38.5 116.5t110.5 79.5q-30 38 -44 73t-14 73v2q0 35 14 67t40 56t63 38.5t84 14.5q42 0 76 -13t58.5 -36t38 -54t13.5 -66v-2q0 -69 -42 -112.5t-112 -69.5l120 -122q20 30 39 64t36 71l93 -49q-21 -42 -44.5 -82.5t-50.5 -77.5
l110 -112l-91 -65z" />
    <glyph glyph-name="quotesingle" unicode="'" horiz-adv-x="269" 
d="M83 700h139v-5l-98 -294h-64z" />
    <glyph glyph-name="parenleft" unicode="(" horiz-adv-x="440" 
d="M340 -141q-137 75 -207 180t-70 248t70 248t207 180l53 -81q-53 -35 -92.5 -73t-65.5 -80t-38.5 -90t-12.5 -104q0 -112 51 -194.5t158 -152.5z" />
    <glyph glyph-name="parenright" unicode=")" horiz-adv-x="440" 
d="M48 -60q53 35 92.5 73t65.5 80t38.5 90t12.5 104q0 112 -51.5 194t-157.5 153l53 81q136 -75 206.5 -180.5t70.5 -247.5t-70.5 -247.5t-206.5 -180.5z" />
    <glyph glyph-name="asterisk" unicode="*" horiz-adv-x="430" 
d="M194 504l-100 -73l-36 61l114 50l-114 50l36 61l100 -73l-14 122h70l-14 -122l100 73l36 -61l-114 -50l114 -50l-36 -61l-100 73l14 -122h-70z" />
    <glyph glyph-name="plus" unicode="+" horiz-adv-x="640" 
d="M263 297h-192v110h192v191h114v-191h192v-110h-192v-191h-114v191z" />
    <glyph glyph-name="comma" unicode="," horiz-adv-x="269" 
d="M34 -94q92 18 85 94h-51v137h133v-116q0 -84 -39 -122t-115 -44z" />
    <glyph glyph-name="hyphen" unicode="-" horiz-adv-x="408" 
d="M56 366h296v-119h-296v119z" />
    <glyph glyph-name="hyphen" unicode="&#xad;" horiz-adv-x="408" 
d="M56 366h296v-119h-296v119z" />
    <glyph glyph-name="period" unicode="." horiz-adv-x="269" 
d="M68 137h133v-137h-133v137z" />
    <glyph glyph-name="slash" unicode="/" horiz-adv-x="521" 
d="M427 798h105l-452 -926h-105z" />
    <glyph glyph-name="zero" unicode="0" horiz-adv-x="724" 
d="M363 99q41 0 73.5 19.5t55.5 53t35.5 79t12.5 97.5v2q0 52 -13 97.5t-36 79.5t-56.5 54t-73.5 20q-41 0 -73.5 -19.5t-55.5 -53t-35.5 -79t-12.5 -97.5v-2q0 -52 12.5 -97.5t36 -79.5t56.5 -54t74 -20zM361 -12q-69 0 -125 28t-96 77t-61.5 114.5t-21.5 140.5v2
q0 75 22 141t62 115t96.5 77.5t125.5 28.5t125 -28t95.5 -77t61.5 -114.5t22 -140.5v-2q0 -75 -22 -141t-62 -115t-96.5 -77.5t-125.5 -28.5z" />
    <glyph glyph-name="one" unicode="1" horiz-adv-x="396" 
d="M178 580l-126 -35l-26 100l188 60h86v-705h-122v580z" />
    <glyph glyph-name="two" unicode="2" horiz-adv-x="613" 
d="M49 97l241 205q36 30 61 54.5t40.5 46.5t22.5 43t7 45q0 52 -32.5 80.5t-80.5 28.5t-84.5 -26t-77.5 -79l-87 68q25 35 51 62.5t56.5 46t67 28.5t83.5 10q51 0 93.5 -15t73 -42.5t47.5 -66t17 -85.5v-2q0 -41 -11 -74.5t-33.5 -64.5t-57 -62.5t-80.5 -69.5l-144 -120h333
v-108h-506v97z" />
    <glyph glyph-name="three" unicode="3" horiz-adv-x="618" 
d="M311 -12q-92 0 -157.5 34.5t-110.5 88.5l86 80q38 -45 81.5 -68.5t102.5 -23.5q52 0 86.5 29t34.5 77v2q0 52 -43.5 80t-117.5 28h-57l-20 77l189 201h-303v107h463v-92l-195 -200q40 -5 77 -18.5t65.5 -36.5t46 -58t17.5 -84v-2q0 -48 -18 -89t-50 -70t-77.5 -45.5
t-99.5 -16.5z" />
    <glyph glyph-name="four" unicode="4" horiz-adv-x="681" 
d="M412 258v277l-230 -277h230zM412 157h-353l-23 88l389 460h105v-447h100v-101h-100v-157h-118v157z" />
    <glyph glyph-name="five" unicode="5" horiz-adv-x="622" 
d="M304 -12q-81 0 -144 29.5t-113 77.5l76 89q42 -39 86.5 -61.5t93.5 -22.5q63 0 101 33t38 88v2q0 54 -40.5 85t-104.5 31q-38 0 -70 -9t-59 -22l-74 49l20 343h418v-109h-312l-11 -164q25 9 50.5 14.5t60.5 5.5q51 0 95.5 -13.5t77 -41t51.5 -69t19 -96.5v-2
q0 -54 -18.5 -97.5t-52.5 -74.5t-82 -48t-106 -17z" />
    <glyph glyph-name="six" unicode="6" horiz-adv-x="656" 
d="M334 94q33 0 59 9.5t44 27t27.5 40.5t9.5 50v2q0 53 -38.5 87.5t-104.5 34.5q-33 0 -59 -10t-44.5 -26.5t-28.5 -39t-10 -47.5v-2q0 -27 10.5 -50t29 -40t45.5 -26.5t60 -9.5zM337 -12q-65 0 -112.5 19t-82.5 54q-20 20 -35.5 44.5t-26.5 56.5t-17 73t-6 94v2
q0 80 19 149.5t56.5 121t94 81t130.5 29.5q68 0 118 -20.5t96 -57.5l-66 -95q-37 29 -71.5 45t-80.5 16q-39 0 -69.5 -16.5t-51.5 -46.5t-33 -70.5t-14 -88.5q14 13 30 26t36.5 22.5t45 15.5t55.5 6q51 0 95.5 -14.5t78 -43t52.5 -69.5t19 -93v-2q0 -52 -20 -96t-55 -75.5
t-82.5 -49t-102.5 -17.5z" />
    <glyph glyph-name="seven" unicode="7" horiz-adv-x="609" 
d="M420 592h-352v108h492v-93l-316 -607h-138z" />
    <glyph glyph-name="eight" unicode="8" horiz-adv-x="630" 
d="M315 93q69 0 108 30.5t39 74.5v2q0 24 -11.5 43.5t-31 33.5t-46.5 21.5t-58 7.5t-58 -7.5t-46.5 -21.5t-31 -33.5t-11.5 -43.5v-2q0 -43 39 -74t108 -31zM315 404q54 0 89.5 29t35.5 74v2q0 41 -34 69.5t-91 28.5t-91 -28.5t-34 -68.5v-2q0 -46 35.5 -75t89.5 -29z
M315 -10q-57 0 -106 14.5t-85 40.5t-56 63t-20 82v2q0 64 33 105t93 66q-45 23 -73.5 60t-28.5 96v2q0 40 18.5 74.5t50.5 60t76.5 40t97.5 14.5q52 0 97 -14.5t77 -39.5t50.5 -60t18.5 -75v-2q0 -59 -28.5 -96t-73.5 -60q57 -26 91.5 -65.5t34.5 -102.5v-2q0 -47 -20 -84.5
t-56 -64t-85 -40.5t-106 -14z" />
    <glyph glyph-name="nine" unicode="9" horiz-adv-x="656" 
d="M325 349q33 0 59.5 10t45 27.5t28 40t9.5 48.5v2q0 55 -39.5 92t-106.5 37q-33 0 -58.5 -10t-43.5 -28t-27.5 -41.5t-9.5 -50.5v-2q0 -55 38.5 -90t104.5 -35zM299 -12q-73 0 -126 23.5t-98 60.5l67 94q40 -34 77.5 -50t82.5 -16q39 0 69.5 16t52 45.5t33.5 70t14 88.5
q-26 -32 -66.5 -53t-97.5 -21q-56 0 -101.5 15.5t-78 44.5t-50.5 70t-18 92v2q0 51 19 95.5t53.5 77t82.5 51t106 18.5q66 0 111.5 -18.5t82.5 -55.5q39 -39 62 -101.5t23 -165.5v-2q0 -84 -20.5 -154.5t-59 -120.5t-94.5 -78t-126 -28z" />
    <glyph glyph-name="colon" unicode=":" horiz-adv-x="279" 
d="M73 137h133v-137h-133v137zM73 528h133v-137h-133v137z" />
    <glyph glyph-name="semicolon" unicode=";" horiz-adv-x="279" 
d="M39 -94q92 18 85 94h-51v137h133v-116q0 -84 -39 -122t-115 -44zM73 528h133v-137h-133v137z" />
    <glyph glyph-name="semicolon" unicode="&#x37e;" horiz-adv-x="279" 
d="M39 -94q92 18 85 94h-51v137h133v-116q0 -84 -39 -122t-115 -44zM73 528h133v-137h-133v137z" />
    <glyph glyph-name="less" unicode="&#x3c;" horiz-adv-x="640" 
d="M70 298v108l477 221v-115l-357 -159l357 -160v-116z" />
    <glyph glyph-name="equal" unicode="=" horiz-adv-x="640" 
d="M86 283h468v-112h-468v112zM86 533h468v-112h-468v112z" />
    <glyph glyph-name="greater" unicode="&#x3e;" horiz-adv-x="640" 
d="M93 192l357 159l-357 160v116l477 -221v-108l-477 -221v115z" />
    <glyph glyph-name="question" unicode="?" horiz-adv-x="541" 
d="M178 137h134v-137h-134v137zM187 383l5 5q96 4 140.5 33t44.5 79v2q0 42 -30.5 68.5t-84.5 26.5q-48 0 -87.5 -20.5t-75.5 -58.5l-75 80q44 50 102 80.5t139 30.5q52 0 95.5 -14t74 -40.5t47.5 -64t17 -84.5v-2q0 -47 -16 -82t-43 -59t-63.5 -39t-78.5 -22l-10 -81h-81z
" />
    <glyph glyph-name="at" unicode="@" horiz-adv-x="980" 
d="M457 154q27 0 52 12.5t44 34t30.5 50t11.5 61.5q0 48 -30 78t-75 30q-27 0 -52.5 -12t-44.5 -33t-30.5 -50t-11.5 -63q0 -52 29.5 -80t76.5 -28zM499 -162q-96 0 -177.5 34.5t-141.5 94t-93.5 138.5t-33.5 169t34 169.5t93 139t139 94.5t172 35t171.5 -33t138.5 -87.5
t92.5 -126t33.5 -149.5q0 -63 -16 -110t-42.5 -77.5t-61.5 -46t-74 -15.5q-59 0 -95 21t-53 49q-27 -28 -64.5 -49t-90.5 -21q-38 0 -70.5 13.5t-57.5 38t-39 59.5t-14 78q0 53 19 98.5t51 79.5t72.5 53t84.5 19q54 0 87.5 -22t53.5 -52l12 60l97 -15l-44 -252
q-2 -14 -3.5 -25t-1.5 -18q0 -32 20.5 -51.5t57.5 -19.5q27 0 51 13t42 38.5t28.5 64t10.5 89.5q0 69 -30 133.5t-83 114.5t-125.5 80t-157.5 30q-86 0 -158.5 -31.5t-126 -86t-83.5 -127.5t-30 -155q0 -83 30 -155.5t84 -126.5t128.5 -85t163.5 -31q74 0 132 17t115 50
l18 -30q-58 -35 -122.5 -55t-142.5 -20z" />
    <glyph glyph-name="A" unicode="A" horiz-adv-x="790" 
d="M514 278l-121 280l-120 -280h241zM338 705h114l308 -705h-130l-71 169h-331l-72 -169h-126z" />
    <glyph glyph-name="B" unicode="B" horiz-adv-x="722" 
d="M415 109q63 0 99 24t36 72v2q0 45 -35.5 69.5t-108.5 24.5h-195v-192h204zM379 405q60 0 96 23.5t36 71.5v2q0 42 -31.5 65.5t-91.5 23.5h-177v-186h168zM90 700h314q121 0 183 -62q47 -47 47 -116v-2q0 -32 -8.5 -56.5t-22 -43t-32 -32.5t-37.5 -24q31 -11 56.5 -25.5
t44 -34.5t28.5 -47t10 -63v-2q0 -47 -18.5 -83t-52.5 -60t-82 -36.5t-106 -12.5h-324v700z" />
    <glyph glyph-name="C" unicode="C" horiz-adv-x="738" 
d="M415 -12q-77 0 -142 28t-112.5 76.5t-74.5 114.5t-27 141v2q0 75 26.5 140.5t74.5 115t114 78t146 28.5q48 0 87.5 -8t72.5 -22.5t61 -34.5t53 -44l-79 -91q-42 39 -89 63t-107 24q-50 0 -92.5 -19.5t-73.5 -53t-48 -78.5t-17 -96v-2q0 -51 17 -96.5t48 -79.5t73.5 -53.5
t92.5 -19.5q64 0 110 24.5t91 66.5l79 -80q-27 -29 -56.5 -51.5t-63.5 -39t-74.5 -25t-89.5 -8.5z" />
    <glyph glyph-name="D" unicode="D" horiz-adv-x="782" 
d="M351 112q55 0 100 17.5t76.5 49t49 75t17.5 94.5v2q0 51 -17.5 95t-49 75.5t-76.5 49.5t-100 18h-138v-476h138zM90 700h261q82 0 150.5 -26.5t118 -73.5t76.5 -110.5t27 -137.5v-2q0 -74 -27 -138t-76.5 -111t-118 -74t-150.5 -27h-261v700z" />
    <glyph glyph-name="E" unicode="E" horiz-adv-x="670" 
d="M90 700h519v-110h-396v-182h351v-110h-351v-188h401v-110h-524v700z" />
    <glyph glyph-name="F" unicode="F" horiz-adv-x="656" 
d="M90 700h521v-112h-398v-191h353v-112h-353v-285h-123v700z" />
    <glyph glyph-name="G" unicode="G" horiz-adv-x="784" 
d="M422 -12q-82 0 -149 27.5t-114.5 76t-73.5 114t-26 142.5v2q0 73 26.5 139t74.5 115.5t114.5 78.5t145.5 29q46 0 83.5 -6.5t69.5 -18.5t60.5 -29.5t55.5 -40.5l-78 -93q-20 17 -41 31t-44 23.5t-50.5 15t-60.5 5.5q-48 0 -89.5 -20t-72 -53.5t-48 -78.5t-17.5 -95v-2
q0 -54 17 -100t48.5 -79t75 -52t97.5 -19q50 0 93.5 14.5t75.5 38.5v131h-179v107h298v-294q-26 -22 -57.5 -42t-68 -35t-78.5 -23.5t-88 -8.5z" />
    <glyph glyph-name="H" unicode="H" horiz-adv-x="760" 
d="M90 700h123v-291h334v291h123v-700h-123v295h-334v-295h-123v700z" />
    <glyph glyph-name="I" unicode="I" horiz-adv-x="317" 
d="M97 700h123v-700h-123v700z" />
    <glyph glyph-name="J" unicode="J" horiz-adv-x="559" 
d="M245 -10q-81 0 -135 32.5t-89 80.5l81 83q31 -39 63.5 -60.5t77.5 -21.5q50 0 80.5 33.5t30.5 103.5v459h126v-462q0 -63 -17 -109t-48 -77t-74 -46.5t-96 -15.5z" />
    <glyph glyph-name="K" unicode="K" horiz-adv-x="725" 
d="M90 700h123v-352l333 352h151l-291 -301l304 -399h-149l-239 315l-109 -112v-203h-123v700z" />
    <glyph glyph-name="L" unicode="L" horiz-adv-x="619" 
d="M90 700h123v-588h368v-112h-491v700z" />
    <glyph glyph-name="M" unicode="M" horiz-adv-x="868" 
d="M90 700h131l213 -331l213 331h131v-700h-123v502l-221 -330h-4l-219 328v-500h-121v700z" />
    <glyph glyph-name="N" unicode="N" horiz-adv-x="790" 
d="M90 700h114l375 -484v484h121v-700h-103l-386 498v-498h-121v700z" />
    <glyph glyph-name="O" unicode="O" horiz-adv-x="850" 
d="M426 101q52 0 95.5 19.5t74.5 53t48.5 78.5t17.5 96v2q0 51 -17.5 96.5t-49 79t-75.5 53.5t-96 20t-95.5 -19.5t-74.5 -53t-48.5 -78.5t-17.5 -96v-2q0 -51 17.5 -96.5t49 -79t75.5 -53.5t96 -20zM424 -12q-81 0 -148 28.5t-115 77.5t-75 114.5t-27 139.5v2
q0 74 27 139.5t76 115t116 78.5t148 29t148 -28.5t115 -77.5t75 -114.5t27 -139.5v-2q0 -74 -27 -139.5t-76 -115t-116 -78.5t-148 -29z" />
    <glyph glyph-name="P" unicode="P" horiz-adv-x="668" 
d="M356 336q70 0 110.5 35t40.5 90v2q0 62 -41 93.5t-110 31.5h-143v-252h143zM90 700h276q61 0 110.5 -16.5t84 -47.5t53 -74t18.5 -96v-2q0 -59 -22 -103.5t-60 -74.5t-89 -45.5t-109 -15.5h-139v-225h-123v700z" />
    <glyph glyph-name="Q" unicode="Q" horiz-adv-x="850" 
d="M426 101q35 0 65 9t55 25l-120 102l79 90l121 -110q36 55 36 131v2q0 51 -17.5 96.5t-49 79t-75.5 53.5t-96 20t-95.5 -19.5t-74.5 -53t-48.5 -78.5t-17.5 -96v-2q0 -51 17.5 -96.5t49 -79t75.5 -53.5t96 -20zM637 54q-45 -32 -98 -49t-115 -17q-81 0 -148 28.5
t-115 77.5t-75 114.5t-27 139.5v2q0 74 27 139.5t76 115t116 78.5t148 29t148 -28.5t115 -77.5t75 -114.5t27 -139.5v-2q0 -60 -18 -114.5t-53 -100.5l80 -68l-79 -88z" />
    <glyph glyph-name="R" unicode="R" horiz-adv-x="723" 
d="M393 353q66 0 105 31.5t39 85.5v2q0 57 -38 86.5t-107 29.5h-179v-235h180zM90 700h312q66 0 117 -18.5t85 -51.5q28 -29 43 -67t15 -84v-2q0 -43 -12.5 -77.5t-34.5 -61t-52.5 -45t-67.5 -28.5l189 -265h-145l-172 244h-2h-152v-244h-123v700z" />
    <glyph glyph-name="S" unicode="S" horiz-adv-x="640" 
d="M335 -10q-81 0 -155 27.5t-137 84.5l74 88q51 -44 103 -67.5t118 -23.5q57 0 90.5 24t33.5 64v2q0 19 -6.5 33.5t-24 27.5t-48 24t-79.5 22q-56 13 -99.5 29.5t-73 40t-45 57.5t-15.5 82v2q0 45 18 82.5t49.5 64t75.5 41.5t96 15q77 0 138.5 -22.5t115.5 -65.5l-66 -93
q-48 35 -95 53.5t-95 18.5q-54 0 -84 -24t-30 -59v-2q0 -20 7 -35.5t25.5 -28t51 -23.5t82.5 -23q55 -14 97.5 -31t70.5 -41.5t42.5 -57t14.5 -75.5v-2q0 -49 -18.5 -88t-51.5 -66t-79 -41t-101 -14z" />
    <glyph glyph-name="T" unicode="T" horiz-adv-x="648" 
d="M262 586h-222v114h568v-114h-222v-586h-124v586z" />
    <glyph glyph-name="U" unicode="U" horiz-adv-x="757" 
d="M377 -11q-68 0 -123 19.5t-94 58.5t-60 96.5t-21 133.5v403h123v-398q0 -98 47 -149t130 -51q82 0 129 49t47 146v403h123v-397q0 -78 -21.5 -137t-60.5 -98.5t-94.5 -59t-124.5 -19.5z" />
    <glyph glyph-name="V" unicode="V" horiz-adv-x="750" 
d="M30 700h136l211 -538l210 538h133l-291 -705h-108z" />
    <glyph glyph-name="W" unicode="W" horiz-adv-x="1116" 
d="M36 700h133l167 -519l172 521h104l172 -521l167 519h129l-244 -705h-106l-172 503l-172 -503h-106z" />
    <glyph glyph-name="X" unicode="X" horiz-adv-x="729" 
d="M292 356l-245 344h145l174 -251l175 251h141l-244 -342l254 -358h-145l-184 265l-185 -265h-141z" />
    <glyph glyph-name="Y" unicode="Y" horiz-adv-x="716" 
d="M296 276l-278 424h145l196 -310l198 310h141l-278 -421v-279h-124v276z" />
    <glyph glyph-name="Z" unicode="Z" horiz-adv-x="702" 
d="M65 91l413 500h-400v109h560v-91l-413 -500h413v-109h-573v91z" />
    <glyph glyph-name="bracketleft" unicode="[" horiz-adv-x="454" 
d="M88 700h307v-95h-192v-640h192v-95h-307v830z" />
    <glyph glyph-name="backslash" unicode="\" horiz-adv-x="521" 
d="M-11 798h105l452 -926h-105z" />
    <glyph glyph-name="bracketright" unicode="]" horiz-adv-x="454" 
d="M59 -35h192v640h-192v95h308v-830h-308v95z" />
    <glyph glyph-name="asciicircum" unicode="^" 
d="M207 701h86l151 -208h-93l-102 132l-102 -132h-91z" />
    <glyph glyph-name="underscore" unicode="_" horiz-adv-x="600" 
d="M-2 -66h604v-94h-604v94z" />
    <glyph glyph-name="grave" unicode="`" 
d="M124 710l110 49l106 -164h-94z" />
    <glyph glyph-name="a" unicode="a" horiz-adv-x="587" 
d="M402 221q-23 9 -54.5 15t-66.5 6q-57 0 -89 -22t-32 -60v-2q0 -38 29.5 -58t72.5 -20q30 0 55.5 8t44.5 22.5t29.5 35t10.5 45.5v30zM399 0v65q-27 -32 -69 -54t-102 -22q-38 0 -72 10.5t-59.5 31t-41 51t-15.5 70.5v2q0 44 16 76.5t44.5 54t68 32t85.5 10.5
q48 0 81.5 -6t64.5 -16v10q0 55 -33.5 84t-96.5 29q-45 0 -80 -9t-71 -24l-33 97q44 20 90 32t111 12q118 0 175 -58.5t57 -164.5v-313h-120z" />
    <glyph glyph-name="b" unicode="b" horiz-adv-x="670" 
d="M348 94q31 0 58.5 12t48 33.5t32.5 53t12 70.5v2q0 38 -12 69.5t-32.5 53.5t-48 34t-58.5 12t-59 -12t-49 -34.5t-33.5 -53.5t-12.5 -69v-2q0 -38 12.5 -69.5t33.5 -53.5t49 -34t59 -12zM376 -11q-65 0 -108 28t-71 65v-82h-121v730h121v-290q29 42 72 70.5t107 28.5
q47 0 91 -18t78.5 -53t55.5 -86t21 -117v-2q0 -66 -20.5 -117t-55 -86t-79 -53t-91.5 -18z" />
    <glyph glyph-name="c" unicode="c" horiz-adv-x="571" 
d="M320 -12q-59 0 -109 21.5t-86.5 58.5t-57 87t-20.5 106v2q0 56 20.5 106.5t57 88t87 59.5t109.5 22q75 0 124.5 -25t86.5 -66l-75 -81q-28 29 -59.5 47.5t-77.5 18.5q-33 0 -61 -13.5t-48 -36t-31.5 -53.5t-11.5 -65v-2q0 -35 11.5 -66t32.5 -54t50 -36.5t64 -13.5
q43 0 75.5 18.5t61.5 47.5l73 -72q-39 -44 -89 -71.5t-127 -27.5z" />
    <glyph glyph-name="d" unicode="d" horiz-adv-x="670" 
d="M323 94q30 0 58 12t49 34.5t33.5 53.5t12.5 69v2q0 38 -12.5 69.5t-33.5 53.5t-49 34t-58 12q-31 0 -58.5 -11.5t-48.5 -33.5t-33 -53.5t-12 -70.5v-2q0 -38 12 -69.5t33 -53.5t48.5 -34t58.5 -12zM294 -11q-47 0 -91 18t-78 53t-55 86t-21 117v2q0 66 20.5 117t54.5 86
t78.5 53t91.5 18q65 0 108 -28t72 -65v284h121v-730h-121v88q-29 -41 -72.5 -70t-107.5 -29z" />
    <glyph glyph-name="e" unicode="e" horiz-adv-x="604" 
d="M438 301q-3 29 -13 54.5t-27 44t-40.5 29.5t-53.5 11q-56 0 -92.5 -38.5t-44.5 -100.5h271zM318 -12q-57 0 -106.5 20t-86 56t-57.5 86.5t-21 111.5v2q0 57 19 107t53.5 87.5t81.5 59t104 21.5q63 0 110.5 -23t79 -62t47.5 -90.5t16 -108.5q0 -8 -0.5 -16.5t-1.5 -17.5
h-388q10 -65 51.5 -99.5t100.5 -34.5q45 0 78 16t65 47l71 -63q-38 -45 -90.5 -72t-125.5 -27z" />
    <glyph glyph-name="f" unicode="f" horiz-adv-x="376" 
d="M103 424h-67v101h67v38q0 88 43 131q42 42 119 42q32 0 55 -4t43 -10v-102q-18 6 -34.5 9.5t-36.5 3.5q-70 0 -70 -80v-29h140v-100h-138v-424h-121v424z" />
    <glyph glyph-name="g" unicode="g" horiz-adv-x="670" 
d="M321 144q31 0 59.5 10.5t49.5 30t33.5 46t12.5 58.5v2q0 33 -12.5 59.5t-33.5 46t-49.5 30t-59.5 10.5q-32 0 -59 -10.5t-47.5 -29.5t-32 -45.5t-11.5 -59.5v-2q0 -33 12 -59.5t32 -46t47.5 -30t58.5 -10.5zM311 -162q-132 0 -236 63l45 91q42 -26 88 -41t100 -15
q81 0 124 41t43 121v41q-33 -43 -77 -70t-109 -27q-47 0 -90 17t-76.5 48.5t-53.5 77.5t-20 104v2q0 58 20 104.5t53.5 78t77 48.5t89.5 17q67 0 110.5 -26.5t74.5 -63.5v79h121v-420q0 -132 -67 -199q-36 -36 -90.5 -53.5t-126.5 -17.5z" />
    <glyph glyph-name="h" unicode="h" horiz-adv-x="620" 
d="M76 730h121v-284q13 19 28.5 35.5t36 29.5t45 20.5t55.5 7.5q90 0 139 -55t49 -148v-336h-121v300q0 62 -29.5 95.5t-83.5 33.5q-53 0 -86 -34.5t-33 -96.5v-298h-121v730z" />
    <glyph glyph-name="i" unicode="i" horiz-adv-x="286" 
d="M83 528h121v-528h-121v528zM78 724h130v-115h-130v115z" />
    <glyph glyph-name="j" unicode="j" horiz-adv-x="286" 
d="M50 -163q-17 0 -30.5 1.5t-27.5 3.5v97q18 -3 34 -3q26 0 41.5 14.5t15.5 49.5v528h121v-535q0 -81 -39.5 -118.5t-114.5 -37.5zM78 724h130v-115h-130v115z" />
    <glyph glyph-name="k" unicode="k" horiz-adv-x="582" 
d="M76 730h121v-436l219 234h147l-210 -215l217 -313h-140l-159 228l-74 -77v-151h-121v730z" />
    <glyph glyph-name="l" unicode="l" horiz-adv-x="286" 
d="M83 730h121v-730h-121v730z" />
    <glyph glyph-name="m" unicode="m" horiz-adv-x="950" 
d="M76 528h121v-80q13 18 28 34t34.5 29t44 20.5t54.5 7.5q57 0 96.5 -25.5t60.5 -67.5q32 42 75.5 67.5t103.5 25.5q87 0 136 -52.5t49 -149.5v-337h-121v300q0 63 -28 96t-79 33q-50 0 -81.5 -33.5t-31.5 -97.5v-298h-121v301q0 62 -28 95t-79 33t-82 -35t-31 -97v-297
h-121v528z" />
    <glyph glyph-name="n" unicode="n" horiz-adv-x="620" 
d="M76 528h121v-82q13 19 28.5 35.5t36 29.5t45 20.5t55.5 7.5q90 0 139 -55t49 -148v-336h-121v300q0 62 -29.5 95.5t-83.5 33.5q-53 0 -86 -34.5t-33 -96.5v-298h-121v528z" />
    <glyph glyph-name="o" unicode="o" horiz-adv-x="657" 
d="M329 93q37 0 66.5 13.5t50.5 36.5t32 53.5t11 64.5v2q0 35 -12 66t-33.5 54t-51 36.5t-65.5 13.5t-65.5 -13.5t-50.5 -36t-32 -53.5t-11 -65v-2q0 -35 12 -65.5t33.5 -54t51 -37t64.5 -13.5zM327 -12q-60 0 -111.5 21.5t-89 58.5t-58.5 87t-21 106v2q0 57 21.5 107
t59 87.5t89 59.5t112.5 22t112.5 -21.5t89 -59t58.5 -87t21 -106.5v-2q0 -56 -21.5 -106t-59 -87.5t-89.5 -59.5t-113 -22z" />
    <glyph glyph-name="p" unicode="p" horiz-adv-x="670" 
d="M348 94q31 0 58.5 12t48 33.5t32.5 53t12 70.5v2q0 38 -12 69.5t-32.5 53.5t-48 34t-58.5 12t-59 -12t-49 -34.5t-33.5 -53.5t-12.5 -69v-2q0 -38 12.5 -69.5t33.5 -53.5t49 -34t59 -12zM76 528h121v-88q29 42 72 70.5t107 28.5q47 0 91 -18t78.5 -53t55.5 -86t21 -117
v-2q0 -66 -20.5 -117t-55 -86t-79 -53t-91.5 -18q-65 0 -108 28t-71 65v-242h-121v688z" />
    <glyph glyph-name="q" unicode="q" horiz-adv-x="670" 
d="M323 94q30 0 58 12t49 34.5t33.5 53.5t12.5 69v2q0 38 -12.5 69.5t-33.5 53.5t-49 34t-58 12q-31 0 -58.5 -11.5t-48.5 -33.5t-33 -53.5t-12 -70.5v-2q0 -38 12 -69.5t33 -53.5t48.5 -34t58.5 -12zM474 88q-29 -41 -72.5 -70t-107.5 -29q-47 0 -91 18t-78 53t-55 86
t-21 117v2q0 66 20.5 117t54.5 86t78.5 53t91.5 18q65 0 108 -28t72 -65v82h121v-688h-121v248z" />
    <glyph glyph-name="r" unicode="r" horiz-adv-x="413" 
d="M76 528h121v-119q25 60 71 96t116 33v-128h-7q-40 0 -73 -13t-57 -39t-37 -65.5t-13 -91.5v-201h-121v528z" />
    <glyph glyph-name="s" unicode="s" 
d="M257 -10q-57 0 -115.5 20t-108.5 59l54 82q43 -32 87.5 -48.5t85.5 -16.5q39 0 60.5 15.5t21.5 41.5v2q0 15 -9.5 26t-26 19t-38 15t-44.5 14q-29 8 -58.5 19t-53 28.5t-38.5 43.5t-15 64v2q0 37 14.5 67t40 51t60 32t73.5 11q50 0 101 -16t93 -44l-48 -86
q-38 23 -77 36.5t-72 13.5q-35 0 -54.5 -15t-19.5 -38v-2q0 -14 10 -24.5t26.5 -19t38 -16t44.5 -14.5q29 -9 58 -21t52.5 -29.5t38.5 -42.5t15 -61v-2q0 -42 -15 -73t-41.5 -51.5t-62.5 -31t-77 -10.5z" />
    <glyph glyph-name="t" unicode="t" horiz-adv-x="410" 
d="M253 -9q-33 0 -61 8t-48.5 26t-31.5 47.5t-11 73.5v278h-67v104h67v145h121v-145h142v-104h-142v-259q0 -35 17 -50.5t48 -15.5q39 0 75 18v-99q-23 -13 -49 -20t-60 -7z" />
    <glyph glyph-name="u" unicode="u" horiz-adv-x="620" 
d="M258 -11q-90 0 -139 55t-49 148v336h121v-300q0 -62 29.5 -95.5t83.5 -33.5q53 0 86 34.5t33 96.5v298h121v-528h-121v82q-26 -38 -65 -65.5t-100 -27.5z" />
    <glyph glyph-name="v" unicode="v" horiz-adv-x="595" 
d="M26 528h130l142 -388l143 388h127l-216 -532h-109z" />
    <glyph glyph-name="w" unicode="w" horiz-adv-x="861" 
d="M32 528h124l106 -362l117 364h103l118 -364l108 362h121l-173 -532h-108l-118 361l-119 -361h-108z" />
    <glyph glyph-name="x" unicode="x" horiz-adv-x="580" 
d="M224 268l-187 260h132l122 -174l122 174h129l-187 -257l195 -271h-132l-130 185l-129 -185h-129z" />
    <glyph glyph-name="y" unicode="y" horiz-adv-x="596" 
d="M184 -163q-38 0 -67.5 8.5t-57.5 23.5l41 90q17 -9 34.5 -14.5t36.5 -5.5q26 0 43 13t32 48l-220 528h129l150 -392l137 392h126l-210 -543q-16 -41 -33 -69t-38 -45.5t-46 -25.5t-57 -8z" />
    <glyph glyph-name="z" unicode="z" horiz-adv-x="560" 
d="M52 83l305 346h-294v99h448v-83l-305 -346h305v-99h-459v83z" />
    <glyph glyph-name="braceleft" unicode="{" horiz-adv-x="487" 
d="M416 -141q-68 12 -112 30.5t-69.5 43t-35.5 56t-10 70.5q0 6 0.5 15.5t0.5 20t0.5 20.5t0.5 16q0 59 -25 84.5t-88 25.5h-26v92h26q63 0 88 25.5t25 84.5q0 6 -0.5 16t-0.5 20.5t-0.5 20t-0.5 15.5q0 39 10 70t35.5 56t69.5 43.5t112 30.5l21 -80q-45 -12 -72 -25
t-41 -28.5t-18.5 -36t-4.5 -47.5q0 -15 1 -36.5t1 -37.5q0 -59 -27 -90t-77 -47q51 -17 77.5 -47.5t26.5 -89.5q0 -16 -1 -37.5t-1 -36.5q0 -27 4.5 -47.5t18.5 -36t41 -28.5t72 -25z" />
    <glyph glyph-name="bar" unicode="|" horiz-adv-x="331" 
d="M117 798h97v-926h-97v926z" />
    <glyph glyph-name="braceright" unicode="}" horiz-adv-x="487" 
d="M50 -61q45 12 72 25t41 28.5t18.5 36t4.5 47.5q0 15 -1 36.5t-1 37.5q0 59 27 90t77 47q-51 17 -77.5 47.5t-26.5 89.5q0 16 1 37.5t1 36.5q0 27 -4.5 47.5t-18.5 36t-41 28.5t-72 25l21 80q68 -12 112 -30.5t69.5 -43.5t35.5 -56t10 -70q0 -6 -0.5 -15.5t-0.5 -20
t-0.5 -20.5t-0.5 -16q0 -59 25 -84.5t88 -25.5h26v-92h-26q-63 0 -88 -25.5t-25 -84.5q0 -6 0.5 -16t0.5 -20.5t0.5 -20t0.5 -15.5q0 -39 -10 -70.5t-35.5 -56t-69.5 -43t-112 -30.5z" />
    <glyph glyph-name="asciitilde" unicode="~" horiz-adv-x="495" 
d="M59 250q17 60 41.5 92t70.5 32q21 0 41 -6.5t38 -14t34.5 -13.5t29.5 -6q22 0 33 12t22 38l67 -20q-17 -61 -41.5 -93t-70.5 -32q-21 0 -41 6t-38 13.5t-34.5 14t-29.5 6.5q-22 0 -33 -12t-22 -38z" />
    <glyph glyph-name="Adieresis" unicode="&#xc4;" horiz-adv-x="790" 
d="M234 876h123v-118h-123v118zM433 876h123v-118h-123v118zM514 278l-121 280l-120 -280h241zM338 705h114l308 -705h-130l-71 169h-331l-72 -169h-126z" />
    <glyph glyph-name="Aring" unicode="&#xc5;" horiz-adv-x="790" 
d="M514 278l-121 280l-120 -280h241zM395 710q26 0 44 18t18 43v2q0 25 -18 43t-44 18t-44 -18t-18 -43v-2q0 -25 18 -43t44 -18zM328 684q-20 15 -33.5 37.5t-13.5 49.5v2q0 22 9.5 42t25 35t36 23.5t43.5 8.5q22 0 43 -8.5t36.5 -23.5t25 -35t9.5 -42v-2
q0 -27 -13.5 -49.5t-33.5 -37.5l298 -684h-130l-71 169h-331l-72 -169h-126z" />
    <glyph glyph-name="Ccedilla" unicode="&#xc7;" horiz-adv-x="738" 
d="M266 -121l79 116q-63 12 -115.5 43.5t-90.5 78t-59 106t-21 125.5v2q0 75 26.5 140.5t74.5 115t114 78t146 28.5q48 0 87.5 -8t72.5 -22.5t61 -34.5t53 -44l-79 -91q-42 39 -89 63t-107 24q-50 0 -92.5 -19.5t-73.5 -53t-48 -78.5t-17 -96v-2q0 -51 17 -96.5t48 -79.5
t73.5 -53.5t92.5 -19.5q64 0 110 24.5t91 66.5l79 -80q-26 -27 -53 -48.5t-58.5 -37.5t-68.5 -25.5t-82 -11.5l-66 -154z" />
    <glyph glyph-name="Eacute" unicode="&#xc9;" horiz-adv-x="670" 
d="M383 922l110 -49l-122 -115h-94zM90 700h519v-110h-396v-182h351v-110h-351v-188h401v-110h-524v700z" />
    <glyph glyph-name="Ntilde" unicode="&#xd1;" horiz-adv-x="790" 
d="M206 768q17 61 41.5 93t70.5 32q21 0 41 -6.5t38.5 -14t34.5 -13.5t30 -6q22 0 33 12t22 38l67 -21q-17 -60 -41.5 -92t-70.5 -32q-21 0 -41 6t-38.5 13.5t-35 14t-29.5 6.5q-22 0 -33 -12t-22 -38zM90 700h114l375 -484v484h121v-700h-103l-386 498v-498h-121v700z" />
    <glyph glyph-name="Odieresis" unicode="&#xd6;" horiz-adv-x="850" 
d="M264 876h123v-118h-123v118zM463 876h123v-118h-123v118zM426 101q52 0 95.5 19.5t74.5 53t48.5 78.5t17.5 96v2q0 51 -17.5 96.5t-49 79t-75.5 53.5t-96 20t-95.5 -19.5t-74.5 -53t-48.5 -78.5t-17.5 -96v-2q0 -51 17.5 -96.5t49 -79t75.5 -53.5t96 -20zM424 -12
q-81 0 -148 28.5t-115 77.5t-75 114.5t-27 139.5v2q0 74 27 139.5t76 115t116 78.5t148 29t148 -28.5t115 -77.5t75 -114.5t27 -139.5v-2q0 -74 -27 -139.5t-76 -115t-116 -78.5t-148 -29z" />
    <glyph glyph-name="Udieresis" unicode="&#xdc;" horiz-adv-x="757" 
d="M218 875h123v-118h-123v118zM417 875h123v-118h-123v118zM377 -11q-68 0 -123 19.5t-94 58.5t-60 96.5t-21 133.5v403h123v-398q0 -98 47 -149t130 -51q82 0 129 49t47 146v403h123v-397q0 -78 -21.5 -137t-60.5 -98.5t-94.5 -59t-124.5 -19.5z" />
    <glyph glyph-name="aacute" unicode="&#xe1;" horiz-adv-x="587" 
d="M341 759l110 -49l-122 -115h-94zM402 221q-23 9 -54.5 15t-66.5 6q-57 0 -89 -22t-32 -60v-2q0 -38 29.5 -58t72.5 -20q30 0 55.5 8t44.5 22.5t29.5 35t10.5 45.5v30zM399 0v65q-27 -32 -69 -54t-102 -22q-38 0 -72 10.5t-59.5 31t-41 51t-15.5 70.5v2q0 44 16 76.5
t44.5 54t68 32t85.5 10.5q48 0 81.5 -6t64.5 -16v10q0 55 -33.5 84t-96.5 29q-45 0 -80 -9t-71 -24l-33 97q44 20 90 32t111 12q118 0 175 -58.5t57 -164.5v-313h-120z" />
    <glyph glyph-name="agrave" unicode="&#xe0;" horiz-adv-x="587" 
d="M135 710l110 49l106 -164h-94zM402 221q-23 9 -54.5 15t-66.5 6q-57 0 -89 -22t-32 -60v-2q0 -38 29.5 -58t72.5 -20q30 0 55.5 8t44.5 22.5t29.5 35t10.5 45.5v30zM399 0v65q-27 -32 -69 -54t-102 -22q-38 0 -72 10.5t-59.5 31t-41 51t-15.5 70.5v2q0 44 16 76.5
t44.5 54t68 32t85.5 10.5q48 0 81.5 -6t64.5 -16v10q0 55 -33.5 84t-96.5 29q-45 0 -80 -9t-71 -24l-33 97q44 20 90 32t111 12q118 0 175 -58.5t57 -164.5v-313h-120z" />
    <glyph glyph-name="acircumflex" unicode="&#xe2;" horiz-adv-x="587" 
d="M237 741h112l116 -146h-96l-77 67l-77 -67h-94zM402 221q-23 9 -54.5 15t-66.5 6q-57 0 -89 -22t-32 -60v-2q0 -38 29.5 -58t72.5 -20q30 0 55.5 8t44.5 22.5t29.5 35t10.5 45.5v30zM399 0v65q-27 -32 -69 -54t-102 -22q-38 0 -72 10.5t-59.5 31t-41 51t-15.5 70.5v2
q0 44 16 76.5t44.5 54t68 32t85.5 10.5q48 0 81.5 -6t64.5 -16v10q0 55 -33.5 84t-96.5 29q-45 0 -80 -9t-71 -24l-33 97q44 20 90 32t111 12q118 0 175 -58.5t57 -164.5v-313h-120z" />
    <glyph glyph-name="adieresis" unicode="&#xe4;" horiz-adv-x="587" 
d="M132 713h123v-118h-123v118zM331 713h123v-118h-123v118zM402 221q-23 9 -54.5 15t-66.5 6q-57 0 -89 -22t-32 -60v-2q0 -38 29.5 -58t72.5 -20q30 0 55.5 8t44.5 22.5t29.5 35t10.5 45.5v30zM399 0v65q-27 -32 -69 -54t-102 -22q-38 0 -72 10.5t-59.5 31t-41 51
t-15.5 70.5v2q0 44 16 76.5t44.5 54t68 32t85.5 10.5q48 0 81.5 -6t64.5 -16v10q0 55 -33.5 84t-96.5 29q-45 0 -80 -9t-71 -24l-33 97q44 20 90 32t111 12q118 0 175 -58.5t57 -164.5v-313h-120z" />
    <glyph glyph-name="atilde" unicode="&#xe3;" horiz-adv-x="587" 
d="M105 605q17 61 41.5 93t70.5 32q21 0 41 -6.5t38.5 -14t34.5 -13.5t30 -6q22 0 33 12t22 38l67 -21q-17 -60 -41.5 -92t-70.5 -32q-21 0 -41 6t-38.5 13.5t-35 14t-29.5 6.5q-22 0 -33 -12t-22 -38zM402 221q-23 9 -54.5 15t-66.5 6q-57 0 -89 -22t-32 -60v-2
q0 -38 29.5 -58t72.5 -20q30 0 55.5 8t44.5 22.5t29.5 35t10.5 45.5v30zM399 0v65q-27 -32 -69 -54t-102 -22q-38 0 -72 10.5t-59.5 31t-41 51t-15.5 70.5v2q0 44 16 76.5t44.5 54t68 32t85.5 10.5q48 0 81.5 -6t64.5 -16v10q0 55 -33.5 84t-96.5 29q-45 0 -80 -9t-71 -24
l-33 97q44 20 90 32t111 12q118 0 175 -58.5t57 -164.5v-313h-120z" />
    <glyph glyph-name="aring" unicode="&#xe5;" horiz-adv-x="587" 
d="M293 641q26 0 44 18t18 43v2q0 25 -18 43t-44 18t-44 -18t-18 -43v-2q0 -25 18 -43t44 -18zM293 593q-23 0 -43.5 8.5t-36 23.5t-25 35t-9.5 42v2q0 22 9.5 42t25 35t36 23.5t43.5 8.5q22 0 43 -8.5t36.5 -23.5t25 -35t9.5 -42v-2q0 -22 -9.5 -42t-25 -35t-36.5 -23.5
t-43 -8.5zM402 221q-23 9 -54.5 15t-66.5 6q-57 0 -89 -22t-32 -60v-2q0 -38 29.5 -58t72.5 -20q30 0 55.5 8t44.5 22.5t29.5 35t10.5 45.5v30zM399 0v65q-27 -32 -69 -54t-102 -22q-38 0 -72 10.5t-59.5 31t-41 51t-15.5 70.5v2q0 44 16 76.5t44.5 54t68 32t85.5 10.5
q48 0 81.5 -6t64.5 -16v10q0 55 -33.5 84t-96.5 29q-45 0 -80 -9t-71 -24l-33 97q44 20 90 32t111 12q118 0 175 -58.5t57 -164.5v-313h-120z" />
    <glyph glyph-name="ccedilla" unicode="&#xe7;" horiz-adv-x="571" 
d="M170 -121l80 118q-45 11 -82.5 36t-64 59.5t-41.5 77.5t-15 91v2q0 56 20.5 106.5t57 88t87 59.5t109.5 22q75 0 124.5 -25t86.5 -66l-75 -81q-28 29 -59.5 47.5t-77.5 18.5q-33 0 -61 -13.5t-48 -36t-31.5 -53.5t-11.5 -65v-2q0 -35 11.5 -66t32.5 -54t50 -36.5
t64 -13.5q43 0 75.5 18.5t61.5 47.5l73 -72q-37 -40 -82 -67t-113 -31l-65 -154z" />
    <glyph glyph-name="eacute" unicode="&#xe9;" horiz-adv-x="604" 
d="M355 759l110 -49l-122 -115h-94zM438 301q-3 29 -13 54.5t-27 44t-40.5 29.5t-53.5 11q-56 0 -92.5 -38.5t-44.5 -100.5h271zM318 -12q-57 0 -106.5 20t-86 56t-57.5 86.5t-21 111.5v2q0 57 19 107t53.5 87.5t81.5 59t104 21.5q63 0 110.5 -23t79 -62t47.5 -90.5
t16 -108.5q0 -8 -0.5 -16.5t-1.5 -17.5h-388q10 -65 51.5 -99.5t100.5 -34.5q45 0 78 16t65 47l71 -63q-38 -45 -90.5 -72t-125.5 -27z" />
    <glyph glyph-name="egrave" unicode="&#xe8;" horiz-adv-x="604" 
d="M139 710l110 49l106 -164h-94zM438 301q-3 29 -13 54.5t-27 44t-40.5 29.5t-53.5 11q-56 0 -92.5 -38.5t-44.5 -100.5h271zM318 -12q-57 0 -106.5 20t-86 56t-57.5 86.5t-21 111.5v2q0 57 19 107t53.5 87.5t81.5 59t104 21.5q63 0 110.5 -23t79 -62t47.5 -90.5t16 -108.5
q0 -8 -0.5 -16.5t-1.5 -17.5h-388q10 -65 51.5 -99.5t100.5 -34.5q45 0 78 16t65 47l71 -63q-38 -45 -90.5 -72t-125.5 -27z" />
    <glyph glyph-name="ecircumflex" unicode="&#xea;" horiz-adv-x="604" 
d="M247 741h112l116 -146h-96l-77 67l-77 -67h-94zM438 301q-3 29 -13 54.5t-27 44t-40.5 29.5t-53.5 11q-56 0 -92.5 -38.5t-44.5 -100.5h271zM318 -12q-57 0 -106.5 20t-86 56t-57.5 86.5t-21 111.5v2q0 57 19 107t53.5 87.5t81.5 59t104 21.5q63 0 110.5 -23t79 -62
t47.5 -90.5t16 -108.5q0 -8 -0.5 -16.5t-1.5 -17.5h-388q10 -65 51.5 -99.5t100.5 -34.5q45 0 78 16t65 47l71 -63q-38 -45 -90.5 -72t-125.5 -27z" />
    <glyph glyph-name="edieresis" unicode="&#xeb;" horiz-adv-x="604" 
d="M142 713h123v-118h-123v118zM341 713h123v-118h-123v118zM438 301q-3 29 -13 54.5t-27 44t-40.5 29.5t-53.5 11q-56 0 -92.5 -38.5t-44.5 -100.5h271zM318 -12q-57 0 -106.5 20t-86 56t-57.5 86.5t-21 111.5v2q0 57 19 107t53.5 87.5t81.5 59t104 21.5q63 0 110.5 -23
t79 -62t47.5 -90.5t16 -108.5q0 -8 -0.5 -16.5t-1.5 -17.5h-388q10 -65 51.5 -99.5t100.5 -34.5q45 0 78 16t65 47l71 -63q-38 -45 -90.5 -72t-125.5 -27z" />
    <glyph glyph-name="iacute" unicode="&#xed;" horiz-adv-x="286" 
d="M197 759l110 -49l-122 -115h-94zM83 528h121v-528h-121v528z" />
    <glyph glyph-name="igrave" unicode="&#xec;" horiz-adv-x="286" 
d="M-21 710l110 49l106 -164h-94zM83 528h121v-528h-121v528z" />
    <glyph glyph-name="icircumflex" unicode="&#xee;" horiz-adv-x="286" 
d="M87 741h112l116 -146h-96l-77 67l-77 -67h-94zM83 528h121v-528h-121v528z" />
    <glyph glyph-name="idieresis" unicode="&#xef;" horiz-adv-x="286" 
d="M-18 713h123v-118h-123v118zM181 713h123v-118h-123v118zM83 528h121v-528h-121v528z" />
    <glyph glyph-name="ntilde" unicode="&#xf1;" horiz-adv-x="620" 
d="M125 605q17 61 41.5 93t70.5 32q21 0 41 -6.5t39 -14t35 -13.5t30 -6q22 0 33 12t22 38l67 -21q-17 -60 -41.5 -92t-70.5 -32q-21 0 -41 6t-38.5 13.5t-35 14t-30.5 6.5q-22 0 -33 -12t-22 -38zM76 528h121v-82q13 19 28.5 35.5t36 29.5t45 20.5t55.5 7.5q90 0 139 -55
t49 -148v-336h-121v300q0 62 -29.5 95.5t-83.5 33.5q-53 0 -86 -34.5t-33 -96.5v-298h-121v528z" />
    <glyph glyph-name="oacute" unicode="&#xf3;" horiz-adv-x="657" 
d="M387 759l110 -49l-122 -115h-94zM329 93q37 0 66.5 13.5t50.5 36.5t32 53.5t11 64.5v2q0 35 -12 66t-33.5 54t-51 36.5t-65.5 13.5t-65.5 -13.5t-50.5 -36t-32 -53.5t-11 -65v-2q0 -35 12 -65.5t33.5 -54t51 -37t64.5 -13.5zM327 -12q-60 0 -111.5 21.5t-89 58.5
t-58.5 87t-21 106v2q0 57 21.5 107t59 87.5t89 59.5t112.5 22t112.5 -21.5t89 -59t58.5 -87t21 -106.5v-2q0 -56 -21.5 -106t-59 -87.5t-89.5 -59.5t-113 -22z" />
    <glyph glyph-name="ograve" unicode="&#xf2;" horiz-adv-x="657" 
d="M159 710l110 49l106 -164h-94zM329 93q37 0 66.5 13.5t50.5 36.5t32 53.5t11 64.5v2q0 35 -12 66t-33.5 54t-51 36.5t-65.5 13.5t-65.5 -13.5t-50.5 -36t-32 -53.5t-11 -65v-2q0 -35 12 -65.5t33.5 -54t51 -37t64.5 -13.5zM327 -12q-60 0 -111.5 21.5t-89 58.5t-58.5 87
t-21 106v2q0 57 21.5 107t59 87.5t89 59.5t112.5 22t112.5 -21.5t89 -59t58.5 -87t21 -106.5v-2q0 -56 -21.5 -106t-59 -87.5t-89.5 -59.5t-113 -22z" />
    <glyph glyph-name="ocircumflex" unicode="&#xf4;" horiz-adv-x="657" 
d="M272 741h112l116 -146h-96l-77 67l-77 -67h-94zM329 93q37 0 66.5 13.5t50.5 36.5t32 53.5t11 64.5v2q0 35 -12 66t-33.5 54t-51 36.5t-65.5 13.5t-65.5 -13.5t-50.5 -36t-32 -53.5t-11 -65v-2q0 -35 12 -65.5t33.5 -54t51 -37t64.5 -13.5zM327 -12q-60 0 -111.5 21.5
t-89 58.5t-58.5 87t-21 106v2q0 57 21.5 107t59 87.5t89 59.5t112.5 22t112.5 -21.5t89 -59t58.5 -87t21 -106.5v-2q0 -56 -21.5 -106t-59 -87.5t-89.5 -59.5t-113 -22z" />
    <glyph glyph-name="odieresis" unicode="&#xf6;" horiz-adv-x="657" 
d="M167 713h123v-118h-123v118zM366 713h123v-118h-123v118zM329 93q37 0 66.5 13.5t50.5 36.5t32 53.5t11 64.5v2q0 35 -12 66t-33.5 54t-51 36.5t-65.5 13.5t-65.5 -13.5t-50.5 -36t-32 -53.5t-11 -65v-2q0 -35 12 -65.5t33.5 -54t51 -37t64.5 -13.5zM327 -12
q-60 0 -111.5 21.5t-89 58.5t-58.5 87t-21 106v2q0 57 21.5 107t59 87.5t89 59.5t112.5 22t112.5 -21.5t89 -59t58.5 -87t21 -106.5v-2q0 -56 -21.5 -106t-59 -87.5t-89.5 -59.5t-113 -22z" />
    <glyph glyph-name="otilde" unicode="&#xf5;" horiz-adv-x="657" 
d="M139 605q17 61 41.5 93t70.5 32q21 0 41 -6.5t38.5 -14t34.5 -13.5t30 -6q22 0 33 12t22 38l67 -21q-17 -60 -41.5 -92t-70.5 -32q-21 0 -41 6t-38.5 13.5t-35 14t-29.5 6.5q-22 0 -33 -12t-22 -38zM329 93q37 0 66.5 13.5t50.5 36.5t32 53.5t11 64.5v2q0 35 -12 66
t-33.5 54t-51 36.5t-65.5 13.5t-65.5 -13.5t-50.5 -36t-32 -53.5t-11 -65v-2q0 -35 12 -65.5t33.5 -54t51 -37t64.5 -13.5zM327 -12q-60 0 -111.5 21.5t-89 58.5t-58.5 87t-21 106v2q0 57 21.5 107t59 87.5t89 59.5t112.5 22t112.5 -21.5t89 -59t58.5 -87t21 -106.5v-2
q0 -56 -21.5 -106t-59 -87.5t-89.5 -59.5t-113 -22z" />
    <glyph glyph-name="uacute" unicode="&#xfa;" horiz-adv-x="620" 
d="M355 758l110 -49l-122 -115h-94zM258 -11q-90 0 -139 55t-49 148v336h121v-300q0 -62 29.5 -95.5t83.5 -33.5q53 0 86 34.5t33 96.5v298h121v-528h-121v82q-26 -38 -65 -65.5t-100 -27.5z" />
    <glyph glyph-name="ugrave" unicode="&#xf9;" horiz-adv-x="620" 
d="M153 709l110 49l106 -164h-94zM258 -11q-90 0 -139 55t-49 148v336h121v-300q0 -62 29.5 -95.5t83.5 -33.5q53 0 86 34.5t33 96.5v298h121v-528h-121v82q-26 -38 -65 -65.5t-100 -27.5z" />
    <glyph glyph-name="ucircumflex" unicode="&#xfb;" horiz-adv-x="620" 
d="M254 741h112l116 -146h-96l-77 67l-77 -67h-94zM258 -11q-90 0 -139 55t-49 148v336h121v-300q0 -62 29.5 -95.5t83.5 -33.5q53 0 86 34.5t33 96.5v298h121v-528h-121v82q-26 -38 -65 -65.5t-100 -27.5z" />
    <glyph glyph-name="udieresis" unicode="&#xfc;" horiz-adv-x="620" 
d="M149 713h123v-118h-123v118zM348 713h123v-118h-123v118zM258 -11q-90 0 -139 55t-49 148v336h121v-300q0 -62 29.5 -95.5t83.5 -33.5q53 0 86 34.5t33 96.5v298h121v-528h-121v82q-26 -38 -65 -65.5t-100 -27.5z" />
    <glyph glyph-name="dagger" unicode="&#x2020;" horiz-adv-x="410" 
d="M178 513l-122 -9v71l121 -9l-12 134h80l-12 -134l121 9v-71l-122 9l9 -275h-72z" />
    <glyph glyph-name="degree" unicode="&#xb0;" horiz-adv-x="471" 
d="M235 447q21 0 38 8t30 21t20 30.5t7 36.5v2q0 19 -7 36.5t-20 30.5t-30 20.5t-38 7.5q-20 0 -37.5 -7.5t-30 -20.5t-19.5 -30.5t-7 -36.5v-2q0 -19 7 -36.5t19.5 -30.5t30 -21t37.5 -8zM235 381q-33 0 -63 13t-53 35.5t-36.5 51.5t-13.5 62v2q0 33 13.5 62t36.5 51t53 35
t63 13t63 -13t53.5 -35t37 -51t13.5 -62v-2q0 -33 -13.5 -62t-37 -51.5t-53.5 -35.5t-63 -13z" />
    <glyph glyph-name="cent" unicode="&#xa2;" horiz-adv-x="581" 
d="M318 525q-32 -1 -59 -14.5t-47 -36t-31 -53t-11 -64.5v-2q0 -51 22.5 -91.5t62.5 -61.5zM230 96q-39 14 -72 39t-56.5 59t-36.5 74.5t-13 84.5v2q0 57 20.5 107t57 87.5t86.5 59t109 21.5h9l15 76h88l-18 -89q37 -11 65.5 -31.5t52.5 -46.5l-73 -78q-16 16 -33 29t-36 21
l-65 -326q42 1 75.5 19t62.5 46l70 -69q-39 -44 -91 -72.5t-126 -28.5h-6l-17 -86h-88z" />
    <glyph glyph-name="sterling" unicode="&#xa3;" horiz-adv-x="644" 
d="M63 78l79 24v176h-79v104h79v92q0 55 16 99.5t46 74.5q60 62 168 62q42 0 75 -8.5t59.5 -23.5t47.5 -35.5t39 -44.5l-94 -75q-27 35 -55.5 54t-70.5 19q-23 0 -41 -7t-32 -21q-16 -17 -25 -41t-9 -56v-89h249v-104h-249v-171h325v-107h-528v78z" />
    <glyph glyph-name="section" unicode="&#xa7;" horiz-adv-x="632" 
d="M388 278q34 0 55.5 15.5t21.5 38.5v2q0 22 -26.5 38t-90.5 32q-38 10 -62.5 14t-41.5 4q-34 0 -55.5 -15.5t-21.5 -38.5v-2q0 -22 26.5 -38t90.5 -32q38 -10 62.5 -14t41.5 -4zM326 -10q-74 0 -131.5 25t-99.5 70l69 68q35 -32 74 -51.5t87 -19.5q42 0 61.5 14t19.5 35v2
q0 11 -6 20t-21 17t-40.5 16t-64.5 17q-58 13 -99 27.5t-67 31.5t-38 38.5t-12 48.5v2q0 49 30.5 76.5t76.5 39.5q-27 17 -41 41.5t-14 53.5v2q0 67 52 106.5t144 39.5q74 0 131.5 -25t99.5 -70l-69 -68q-35 32 -74 51.5t-87 19.5q-40 0 -60.5 -13.5t-20.5 -35.5v-2
q0 -10 5.5 -19t20 -17t40 -16.5t66.5 -17.5q58 -13 99 -27.5t67 -31.5t38 -38.5t12 -48.5v-2q0 -48 -30.5 -76t-76.5 -40q26 -16 40.5 -41t14.5 -54v-2q0 -66 -51.5 -106t-144.5 -40z" />
    <glyph glyph-name="bullet" unicode="&#x2022;" horiz-adv-x="491" 
d="M245 211q-29 0 -54.5 11t-45 30t-30.5 44.5t-11 54.5v2q0 29 11.5 54.5t30.5 44.5t44.5 30t54.5 11t54.5 -11t45 -30t31 -44.5t11.5 -54.5v-2q0 -29 -11 -54.5t-30.5 -44.5t-45.5 -30t-55 -11z" />
    <glyph glyph-name="paragraph" unicode="&#xb6;" horiz-adv-x="557" 
d="M346 244h-18q-62 0 -114.5 14.5t-91 43t-60.5 71t-22 98.5v2q0 53 20 95t55.5 71.5t85.5 45t110 15.5h159v-700h-124v244z" />
    <glyph glyph-name="germandbls" unicode="&#xdf;" horiz-adv-x="620" 
d="M296 91q73 2 113.5 29.5t40.5 78.5v2q0 49 -42.5 77.5t-111.5 36.5v82q48 23 80.5 56t32.5 83v2q0 44 -27.5 70t-73.5 26q-50 0 -81 -34.5t-31 -93.5v-506h-120v502q0 54 16.5 97.5t47.5 74t75 47t99 16.5q51 0 91 -14.5t67.5 -40t42 -60t14.5 -73.5v-2q0 -34 -9 -60.5
t-24 -47t-35 -36t-42 -27.5q29 -10 56.5 -25t48.5 -36.5t34 -50.5t13 -66v-2q0 -48 -19.5 -86t-55 -63.5t-86.5 -38t-114 -10.5v93z" />
    <glyph glyph-name="registered" unicode="&#xae;" horiz-adv-x="830" 
d="M435 365q35 0 55 16t20 43v2q0 29 -20 44t-55 15h-94v-120h94zM269 550h169q74 0 115 -41q31 -29 31 -79v-2q0 -46 -24.5 -74.5t-63.5 -39.5l102 -143h-86l-92 131h-2h-77v-131h-72v379zM414 24q69 0 128.5 26t103 70t68.5 103.5t25 126.5v2q0 67 -24.5 126t-68 103
t-102.5 69.5t-128 25.5t-128.5 -26t-103 -70t-68.5 -103.5t-25 -126.5v-2q0 -67 24.5 -126t68 -103t102.5 -69.5t128 -25.5zM414 -12q-76 0 -142 28.5t-114.5 77.5t-76.5 114.5t-28 139.5v2q0 74 28 139.5t77 115t115.5 78.5t142.5 29t142 -28.5t114.5 -77.5t76.5 -114.5
t28 -139.5v-2q0 -74 -28 -139.5t-77 -115t-115.5 -78.5t-142.5 -29z" />
    <glyph glyph-name="copyright" unicode="&#xa9;" horiz-adv-x="830" 
d="M419 159q-41 0 -76.5 15t-61 41.5t-40 61.5t-14.5 76v2q0 40 14.5 75.5t40 62.5t61.5 42.5t78 15.5q54 0 88 -16.5t61 -42.5l-47 -54q-22 20 -47 32.5t-55 12.5q-26 0 -47.5 -10t-37 -27.5t-24.5 -40.5t-9 -49v-2q0 -26 9 -49t24.5 -40.5t37 -27.5t47.5 -10
q34 0 57.5 12.5t46.5 34.5l48 -47q-30 -32 -65 -50t-89 -18zM414 24q69 0 128.5 26t103 70t68.5 103.5t25 126.5v2q0 67 -24.5 126t-68 103t-102.5 69.5t-128 25.5t-128.5 -26t-103 -70t-68.5 -103.5t-25 -126.5v-2q0 -67 24.5 -126t68 -103t102.5 -69.5t128 -25.5zM414 -12
q-76 0 -142 28.5t-114.5 77.5t-76.5 114.5t-28 139.5v2q0 74 28 139.5t77 115t115.5 78.5t142.5 29t142 -28.5t114.5 -77.5t76.5 -114.5t28 -139.5v-2q0 -74 -28 -139.5t-77 -115t-115.5 -78.5t-142.5 -29z" />
    <glyph glyph-name="trademark" unicode="&#x2122;" horiz-adv-x="690" 
d="M121 646h-95v54h249v-54h-95v-254h-59v254zM341 700h63l93 -146l93 146h61v-308h-57v219l-95 -148h-6l-95 148v-219h-57v308z" />
    <glyph glyph-name="acute" unicode="&#xb4;" 
d="M266 759l110 -49l-122 -115h-94z" />
    <glyph glyph-name="dieresis" unicode="&#xa8;" 
d="M89 713h123v-118h-123v118zM288 713h123v-118h-123v118z" />
    <glyph glyph-name="AE" unicode="&#xc6;" horiz-adv-x="1045" 
d="M487 278v315h-20l-176 -315h196zM403 700h581v-110h-374v-182h329v-110h-329v-188h379v-110h-502v169h-255l-93 -169h-127z" />
    <glyph glyph-name="Oslash" unicode="&#xd8;" horiz-adv-x="850" 
d="M426 99q52 0 96 19.5t75.5 53.5t49 79.5t17.5 96.5v2q0 85 -46 149l-320 -360q26 -19 58.5 -29.5t69.5 -10.5zM552 561q-26 19 -58.5 29.5t-69.5 10.5q-52 0 -96 -19.5t-75.5 -53.5t-49 -79.5t-17.5 -96.5v-2q0 -85 46 -149zM424 -12q-59 0 -110 15.5t-94 44.5l-48 -53
h-121l99 111q-44 48 -67.5 110.5t-23.5 131.5v2q0 74 27 139.5t76 115t116 78.5t148 29q59 0 110 -15.5t94 -44.5l48 53h121l-99 -112q44 -48 67.5 -110t23.5 -131v-2q0 -74 -27 -139.5t-76 -115t-116 -78.5t-148 -29z" />
    <glyph glyph-name="plusminus" unicode="&#xb1;" horiz-adv-x="610" 
d="M311 -12q-86 0 -155 33.5t-117 88.5l85 79q37 -42 82.5 -66t106.5 -24q58 0 91.5 27.5t33.5 73.5v2q0 48 -40.5 73.5t-113.5 25.5h-75v104h78q61 0 96.5 27.5t35.5 72.5v2q0 42 -32 68t-89 26q-51 0 -87.5 -23.5t-71.5 -64.5l-86 70q22 29 47.5 53t55 41t65 26t79.5 9
q54 0 98.5 -14t76 -39t49 -59.5t17.5 -74.5v-2q0 -66 -30.5 -104.5t-73.5 -59.5q26 -10 48.5 -24t39 -33t26 -44t9.5 -57v-2q0 -45 -17 -83.5t-49 -67t-78.5 -44.5t-104.5 -16z" />
    <glyph glyph-name="yen" unicode="&#xa5;" horiz-adv-x="686" 
d="M284 102h-193v89h193v73h-193v89h159l-231 347h143l183 -293l183 293h139l-232 -347h160v-89h-193v-73h193v-89h-193v-102h-118v102z" />
    <glyph glyph-name="mu" unicode="&#xb5;" horiz-adv-x="850" 
d="M426 101q52 0 95.5 19.5t74.5 53t48.5 78.5t17.5 96v2q0 51 -17.5 96.5t-49 79t-75.5 53.5t-96 20t-95.5 -19.5t-74.5 -53t-48.5 -78.5t-17.5 -96v-2q0 -51 17.5 -96.5t49 -79t75.5 -53.5t96 -20zM549 10q-29 -11 -60 -16.5t-65 -5.5q-81 0 -148 28.5t-115 77.5
t-75 114.5t-27 139.5v2q0 74 27 139.5t76 115t116 78.5t148 29t148 -28.5t115 -77.5t75 -114.5t27 -139.5v-2q0 -80 -31.5 -150t-88.5 -121l175 -172v-8h-180z" />
    <glyph glyph-name="mu" unicode="&#x3bc;" horiz-adv-x="850" 
d="M426 101q52 0 95.5 19.5t74.5 53t48.5 78.5t17.5 96v2q0 51 -17.5 96.5t-49 79t-75.5 53.5t-96 20t-95.5 -19.5t-74.5 -53t-48.5 -78.5t-17.5 -96v-2q0 -51 17.5 -96.5t49 -79t75.5 -53.5t96 -20zM549 10q-29 -11 -60 -16.5t-65 -5.5q-81 0 -148 28.5t-115 77.5
t-75 114.5t-27 139.5v2q0 74 27 139.5t76 115t116 78.5t148 29t148 -28.5t115 -77.5t75 -114.5t27 -139.5v-2q0 -80 -31.5 -150t-88.5 -121l175 -172v-8h-180z" />
    <glyph glyph-name="pi" unicode="&#x3c0;" horiz-adv-x="830" 
d="M433 352q36 0 57 17.5t21 46.5v2q0 31 -21 47t-57 16h-73v-129h73zM286 547h153q68 0 107.5 -34.5t39.5 -93.5v-2q0 -32 -12.5 -56.5t-33.5 -41t-49.5 -24.5t-59.5 -8h-71v-120h-74v380zM414 24q69 0 128.5 26t103 70t68.5 103.5t25 126.5v2q0 67 -24.5 126t-68 103
t-102.5 69.5t-128 25.5t-128.5 -26t-103 -70t-68.5 -103.5t-25 -126.5v-2q0 -67 24.5 -126t68 -103t102.5 -69.5t128 -25.5zM414 -12q-76 0 -142 28.5t-114.5 77.5t-76.5 114.5t-28 139.5v2q0 74 28 139.5t77 115t115.5 78.5t142.5 29t142 -28.5t114.5 -77.5t76.5 -114.5
t28 -139.5v-2q0 -74 -28 -139.5t-77 -115t-115.5 -78.5t-142.5 -29z" />
    <glyph glyph-name="ordfeminine" unicode="&#xaa;" horiz-adv-x="390" 
d="M177 454q32 0 53.5 17t21.5 43v18q-13 5 -28 8t-35 3q-30 0 -47 -12t-17 -33v-2q0 -20 14.5 -31t37.5 -11zM53 340h270v-58h-270v58zM159 403q-21 0 -39.5 6t-32.5 17t-22.5 28t-8.5 39v2q0 47 33.5 70t86.5 23q24 0 41.5 -3t34.5 -8v5q0 61 -70 61q-23 0 -42.5 -5.5
t-40.5 -13.5l-19 54q26 12 51 18.5t60 6.5q65 0 97 -33q16 -15 23.5 -38t7.5 -51v-172h-68v34q-16 -18 -38 -29t-54 -11z" />
    <glyph glyph-name="ordmasculine" unicode="&#xba;" horiz-adv-x="390" 
d="M196 464q37 0 58.5 26t21.5 62v2q0 36 -23 62.5t-59 26.5q-37 0 -58.5 -26t-21.5 -62v-2q0 -36 23 -62.5t59 -26.5zM51 340h288v-58h-288v58zM194 402q-32 0 -59.5 12t-47.5 32t-31.5 47.5t-11.5 58.5v2q0 31 11.5 58.5t32 48t48 32.5t60.5 12q32 0 59.5 -12t47.5 -32
t31.5 -47.5t11.5 -58.5v-2q0 -31 -11.5 -58.5t-32 -48t-48 -32.5t-60.5 -12z" />
    <glyph glyph-name="Omega" unicode="&#x3a9;" horiz-adv-x="752" 
d="M103 424h-67v101h67v38q0 88 43 131q42 42 119 42q32 0 55 -4t43 -10v-102q-18 6 -34.5 9.5t-36.5 3.5q-70 0 -70 -80v-29h140v-100h-138v-424h-121v424zM479 424h-67v101h67v38q0 88 43 131q42 42 118 42q32 0 55.5 -4t43.5 -10v-102q-18 6 -34.5 9.5t-36.5 3.5
q-70 0 -70 -80v-29h140v-100h-138v-424h-121v424z" />
    <glyph glyph-name="Omega" unicode="&#x2126;" horiz-adv-x="752" 
d="M103 424h-67v101h67v38q0 88 43 131q42 42 119 42q32 0 55 -4t43 -10v-102q-18 6 -34.5 9.5t-36.5 3.5q-70 0 -70 -80v-29h140v-100h-138v-424h-121v424zM479 424h-67v101h67v38q0 88 43 131q42 42 118 42q32 0 55.5 -4t43.5 -10v-102q-18 6 -34.5 9.5t-36.5 3.5
q-70 0 -70 -80v-29h140v-100h-138v-424h-121v424z" />
    <glyph glyph-name="ae" unicode="&#xe6;" horiz-adv-x="952" 
d="M260 80q44 0 82.5 18t73.5 50q-7 17 -12 36t-7 40q-23 8 -52 13t-66 5q-56 0 -87.5 -22t-31.5 -60v-2q0 -38 29 -58t71 -20zM786 301q-3 29 -13 54.5t-27 44t-40.5 29.5t-53.5 11q-57 0 -93.5 -38.5t-44.5 -100.5h272zM240 -11q-41 0 -77.5 10.5t-63.5 31t-43 51
t-16 70.5v2q0 44 16 76.5t44.5 54t67.5 32t84 10.5q50 0 82 -6t63 -16v10q0 113 -129 113q-43 0 -78 -9t-71 -24l-33 97q44 20 90 32t109 12q65 0 113 -22.5t72 -64.5q32 42 79 66t106 24q62 0 108.5 -23t78 -62t47.5 -90.5t16 -108.5v-16.5t-1 -17.5h-388q11 -65 52 -99.5
t99 -34.5q45 0 78.5 16t65.5 47l71 -63q-38 -45 -90.5 -72t-126.5 -27q-62 0 -115 24t-89 66q-45 -37 -99.5 -63t-121.5 -26z" />
    <glyph glyph-name="oslash" unicode="&#xf8;" horiz-adv-x="657" 
d="M329 91q37 0 67.5 13.5t51.5 37t32.5 54t11.5 65.5v2q0 26 -7 49t-18 43l-219 -241q35 -23 81 -23zM408 412q-17 11 -37.5 17.5t-43.5 6.5q-37 0 -67 -13.5t-51 -37t-32.5 -54.5t-11.5 -66v-2q0 -50 25 -91zM327 -12q-42 0 -80.5 11.5t-70.5 31.5l-34 -36h-110l80 89
q-31 36 -48 81t-17 96v2q0 57 21.5 107t59 87.5t89 59.5t112.5 22q43 0 81 -11.5t70 -31.5l35 38h110q-15 -17 -29 -33q-13 -14 -27 -29.5t-25 -28.5q32 -35 49 -80.5t17 -97.5v-2q0 -56 -21.5 -106t-59 -87.5t-89.5 -59.5t-113 -22z" />
    <glyph glyph-name="questiondown" unicode="&#xbf;" horiz-adv-x="541" 
d="M276 -9q-53 0 -96 14t-73.5 40.5t-47.5 64t-17 84.5v2q0 47 16 82t43 59t63.5 39t78.5 22l10 81h81l20 -162l-5 -5q-96 -4 -140.5 -33t-44.5 -79v-2q0 -42 30.5 -68.5t84.5 -26.5q48 0 87.5 20.5t75.5 58.5l75 -80q-44 -50 -102 -80.5t-139 -30.5zM229 700h134v-137h-134
v137z" />
    <glyph glyph-name="exclamdown" unicode="&#xa1;" horiz-adv-x="302" 
d="M80 35l38 444h67l37 -444v-35h-142v35zM85 700h133v-137h-133v137z" />
    <glyph glyph-name="radical" unicode="&#x221a;" horiz-adv-x="1038" 
d="M834 730h122v-730h-122v730zM103 424h-67v101h67v38q0 88 43 131q42 42 119 42q32 0 55 -4t43 -10v-102q-18 6 -34.5 9.5t-36.5 3.5q-70 0 -70 -80v-29h140v-100h-138v-424h-121v424zM479 424h-67v101h67v38q0 88 43 131q42 42 118 42q32 0 55.5 -4t43.5 -10v-102
q-18 6 -34.5 9.5t-36.5 3.5q-70 0 -70 -80v-29h140v-100h-138v-424h-121v424z" />
    <glyph glyph-name="florin" unicode="&#x192;" horiz-adv-x="527" 
d="M97 -5q-18 0 -31 1t-25 4v99q21 -3 40 -3q32 0 49.5 15.5t23.5 51.5l35 193h-80v101h97l18 93q14 76 54 115.5t121 39.5q29 0 51 -3t41 -8v-102q-18 5 -35.5 7.5t-33.5 2.5q-35 0 -54 -18t-27 -59l-12 -68h127v-101h-145l-38 -211q-14 -81 -56 -115.5t-120 -34.5z" />
    <glyph glyph-name="approxequal" unicode="&#x2248;" horiz-adv-x="1038" 
d="M834 528h122v-528h-122v528zM103 424h-67v101h67v38q0 88 43 131q42 42 119 42q32 0 55 -4t43 -10v-102q-18 6 -34.5 9.5t-36.5 3.5q-70 0 -70 -80v-29h140v-100h-138v-424h-121v424zM479 424h-67v101h67v38q0 88 43 131q42 42 118 42q32 0 55.5 -4t43.5 -10v-102
q-18 6 -34.5 9.5t-36.5 3.5q-70 0 -70 -80v-29h140v-100h-138v-424h-121v424zM830 724h130v-115h-130v115z" />
    <glyph glyph-name="guillemotleft" unicode="&#xab;" horiz-adv-x="606" 
d="M44 260v8l166 220l92 -47l-132 -176l132 -177l-92 -47zM296 260v8l165 220l92 -47l-132 -176l132 -177l-92 -47z" />
    <glyph glyph-name="guillemotright" unicode="&#xbb;" horiz-adv-x="606" 
d="M53 87l132 176l-132 177l92 48l165 -220v-8l-165 -219zM304 87l132 176l-132 177l92 48l166 -220v-8l-166 -219z" />
    <glyph glyph-name="ellipsis" unicode="&#x2026;" horiz-adv-x="792" 
d="M68 134h130v-134h-130v134zM331 134h130v-134h-130v134zM594 134h130v-134h-130v134z" />
    <glyph glyph-name="nonbreakingspace" unicode="&#xa0;" horiz-adv-x="300" 
 />
    <glyph glyph-name="Agrave" unicode="&#xc0;" horiz-adv-x="790" 
d="M229 873l110 49l106 -164h-94zM514 278l-121 280l-120 -280h241zM338 705h114l308 -705h-130l-71 169h-331l-72 -169h-126z" />
    <glyph glyph-name="Atilde" unicode="&#xc3;" horiz-adv-x="790" 
d="M206 768q17 61 41.5 93t70.5 32q21 0 41 -6.5t38.5 -14t34.5 -13.5t30 -6q22 0 33 12t22 38l67 -21q-17 -60 -41.5 -92t-70.5 -32q-21 0 -41 6t-38.5 13.5t-35 14t-29.5 6.5q-22 0 -33 -12t-22 -38zM514 278l-121 280l-120 -280h241zM338 705h114l308 -705h-130l-71 169
h-331l-72 -169h-126z" />
    <glyph glyph-name="Otilde" unicode="&#xd5;" horiz-adv-x="850" 
d="M236 768q17 61 41.5 93t70.5 32q21 0 41 -6.5t38.5 -14t34.5 -13.5t30 -6q22 0 33 12t22 38l67 -21q-17 -60 -41.5 -92t-70.5 -32q-21 0 -41 6t-38.5 13.5t-35 14t-29.5 6.5q-22 0 -33 -12t-22 -38zM426 101q52 0 95.5 19.5t74.5 53t48.5 78.5t17.5 96v2q0 51 -17.5 96.5
t-49 79t-75.5 53.5t-96 20t-95.5 -19.5t-74.5 -53t-48.5 -78.5t-17.5 -96v-2q0 -51 17.5 -96.5t49 -79t75.5 -53.5t96 -20zM424 -12q-81 0 -148 28.5t-115 77.5t-75 114.5t-27 139.5v2q0 74 27 139.5t76 115t116 78.5t148 29t148 -28.5t115 -77.5t75 -114.5t27 -139.5v-2
q0 -74 -27 -139.5t-76 -115t-116 -78.5t-148 -29z" />
    <glyph glyph-name="OE" unicode="&#x152;" horiz-adv-x="1098" 
d="M540 112v476h-109q-55 0 -100 -17.5t-76.5 -49t-49 -75t-17.5 -94.5v-2q0 -51 17.5 -95t49 -75.5t76.5 -49.5t100 -18h109zM431 0q-83 0 -151 26.5t-117.5 73.5t-76.5 110.5t-27 137.5v2q0 74 27 138t76.5 111t117.5 74t151 27h606v-110h-374v-182h329v-110h-329v-188
h379v-110h-611z" />
    <glyph glyph-name="oe" unicode="&#x153;" horiz-adv-x="1040" 
d="M326 93q36 0 64.5 13.5t49 36.5t31.5 53.5t11 64.5v2q0 35 -12 66t-33 54t-50 36.5t-63 13.5q-36 0 -64.5 -13.5t-49 -36.5t-31.5 -53.5t-11 -64.5v-2q0 -35 11.5 -65.5t32.5 -54t50 -37t64 -13.5zM874 301q-3 29 -13.5 54.5t-27 44t-40 29.5t-53.5 11q-57 0 -93.5 -38.5
t-44.5 -100.5h272zM321 -12q-57 0 -107 21.5t-87 58.5t-58.5 87t-21.5 106v2q0 57 21.5 107t59 87.5t88.5 59.5t110 22q68 0 122.5 -30t88.5 -79q33 50 85.5 79.5t118.5 29.5q63 0 110 -23t78.5 -62t47.5 -90.5t16 -108.5q0 -8 -0.5 -16.5t-1.5 -17.5h-388
q11 -65 52.5 -99.5t99.5 -34.5q45 0 78.5 16t65.5 47l71 -63q-38 -45 -91 -72t-125 -27q-69 0 -126 29.5t-92 81.5q-35 -51 -90.5 -81t-124.5 -30z" />
    <glyph glyph-name="endash" unicode="&#x2013;" horiz-adv-x="528" 
d="M56 364h416v-115h-416v115z" />
    <glyph glyph-name="emdash" unicode="&#x2014;" horiz-adv-x="898" 
d="M56 364h786v-115h-786v115z" />
    <glyph glyph-name="quotedblleft" unicode="&#x201c;" horiz-adv-x="501" 
d="M63 539q0 84 39 122t115 44l13 -52q-92 -17 -85 -93h51v-138h-133v117zM295 539q0 84 39 122t115 44l13 -52q-92 -17 -86 -93h52v-138h-133v117z" />
    <glyph glyph-name="quotedblright" unicode="&#x201d;" horiz-adv-x="501" 
d="M39 469q92 17 85 94h-51v137h133v-117q0 -84 -39 -122t-115 -44zM271 469q92 17 85 94h-51v137h133v-117q0 -84 -39 -122t-115 -44z" />
    <glyph glyph-name="quoteleft" unicode="&#x2018;" horiz-adv-x="269" 
d="M63 539q0 84 39 122t115 44l13 -52q-92 -17 -85 -93h51v-138h-133v117z" />
    <glyph glyph-name="quoteright" unicode="&#x2019;" horiz-adv-x="269" 
d="M39 469q92 17 85 94h-51v137h133v-117q0 -84 -39 -122t-115 -44z" />
    <glyph glyph-name="ydieresis" unicode="&#xff;" horiz-adv-x="596" 
d="M137 713h123v-118h-123v118zM336 713h123v-118h-123v118zM184 -163q-38 0 -67.5 8.5t-57.5 23.5l41 90q17 -9 34.5 -14.5t36.5 -5.5q26 0 43 13t32 48l-220 528h129l150 -392l137 392h126l-210 -543q-16 -41 -33 -69t-38 -45.5t-46 -25.5t-57 -8z" />
    <glyph glyph-name="Ydieresis" unicode="&#x178;" horiz-adv-x="716" 
d="M197 875h123v-118h-123v118zM396 875h123v-118h-123v118zM296 276l-278 424h145l196 -310l198 310h141l-278 -421v-279h-124v276z" />
    <glyph glyph-name="fraction" unicode="&#x2044;" horiz-adv-x="459" 
d="M397 758h110l-467 -856h-110z" />
    <glyph glyph-name="fraction" unicode="&#x2215;" horiz-adv-x="459" 
d="M397 758h110l-467 -856h-110z" />
    <glyph glyph-name="currency" unicode="&#xa4;" horiz-adv-x="720" 
d="M434 -12q-56 0 -103 17t-84 48.5t-63.5 75t-40.5 96.5h-91v85h77q-1 10 -1 19v19v2v22.5t2 22.5h-78v85h94q15 51 41.5 93.5t62.5 73t81.5 48t98.5 17.5q46 0 82.5 -10t65.5 -27.5t52.5 -42t43.5 -52.5l-93 -69q-32 44 -67 67.5t-87 23.5q-54 0 -93.5 -32.5t-60.5 -89.5
h215v-85h-234q-1 -10 -1.5 -21t-0.5 -22v-2q0 -11 0.5 -20.5t1.5 -19.5h234v-85h-216q20 -59 62 -93t101 -34q25 0 45.5 6.5t38.5 18.5t35 29.5t34 40.5l88 -64q-21 -31 -45.5 -57t-54 -44.5t-64.5 -29t-78 -10.5z" />
    <glyph glyph-name="guilsinglleft" unicode="&#x2039;" horiz-adv-x="354" 
d="M44 260v8l166 220l92 -47l-132 -176l132 -177l-92 -47z" />
    <glyph glyph-name="guilsinglright" unicode="&#x203a;" horiz-adv-x="354" 
d="M53 87l132 176l-132 177l92 48l165 -220v-8l-165 -219z" />
    <glyph glyph-name="daggerdbl" unicode="&#x2021;" horiz-adv-x="430" 
d="M187 134l-121 -9v71l121 -9l-8 163l8 163l-121 -9v71l121 -9l-12 134h80l-12 -134l121 9v-71l-121 9l8 -163l-8 -163l121 9v-71l-121 9l12 -134h-80z" />
    <glyph glyph-name="periodcentered" unicode="&#xb7;" horiz-adv-x="269" 
d="M68 375h133v-137h-133v137z" />
    <glyph glyph-name="periodcentered" unicode="&#x2219;" horiz-adv-x="269" 
d="M68 375h133v-137h-133v137z" />
    <glyph glyph-name="quotesinglbase" unicode="&#x201a;" horiz-adv-x="269" 
d="M34 -94q92 18 85 94h-51v137h133v-116q0 -84 -39 -122t-115 -44z" />
    <glyph glyph-name="quotedblbase" unicode="&#x201e;" horiz-adv-x="501" 
d="M34 -94q92 18 85 94h-51v137h133v-116q0 -84 -39 -122t-115 -44zM266 -94q92 18 85 94h-51v137h133v-116q0 -84 -39 -122t-115 -44z" />
    <glyph glyph-name="perthousand" unicode="&#x2030;" horiz-adv-x="1228" 
d="M637 69q35 0 55 29.5t20 70.5v2q0 42 -21.5 72t-55.5 30q-35 0 -55 -29.5t-20 -70.5v-2q0 -43 21.5 -72.5t55.5 -29.5zM1016 69q35 0 55 29.5t20 70.5v2q0 42 -21.5 72t-55.5 30q-35 0 -55 -29.5t-20 -70.5v-2q0 -43 21.5 -72.5t55.5 -29.5zM214 427q35 0 55 29.5
t20 70.5v2q0 42 -21.5 72t-55.5 30q-35 0 -55 -29.5t-20 -70.5v-2q0 -43 21.5 -72.5t55.5 -29.5zM635 -8q-37 0 -67 14t-51.5 38.5t-33.5 56.5t-12 68v2q0 36 12 68.5t34 57t52.5 39t67.5 14.5t67 -14t51.5 -38.5t33.5 -56.5t12 -68v-2q0 -36 -12 -68.5t-34 -57t-52.5 -39
t-67.5 -14.5zM1014 -8q-37 0 -67.5 14t-52 38.5t-33 56.5t-11.5 68v2q0 36 12 68.5t33.5 57t52 39t68.5 14.5q37 0 67 -14t51.5 -38.5t33.5 -56.5t12 -68v-2q0 -36 -12 -68.5t-34 -57t-52.5 -39t-67.5 -14.5zM631 700h99l-512 -700h-99zM212 350q-37 0 -67 14t-51.5 38.5
t-33.5 56.5t-12 68v2q0 36 12 68.5t34 57t52.5 39t67.5 14.5t67 -14t51.5 -38.5t33.5 -56.5t12 -68v-2q0 -36 -12 -68.5t-34 -57t-52.5 -39t-67.5 -14.5z" />
    <glyph glyph-name="Acircumflex" unicode="&#xc2;" horiz-adv-x="790" 
d="M339 903h112l116 -146h-96l-77 67l-77 -67h-94zM514 278l-121 280l-120 -280h241zM338 705h114l308 -705h-130l-71 169h-331l-72 -169h-126z" />
    <glyph glyph-name="Ecircumflex" unicode="&#xca;" horiz-adv-x="670" 
d="M291 904h112l116 -146h-96l-77 67l-77 -67h-94zM90 700h519v-110h-396v-182h351v-110h-351v-188h401v-110h-524v700z" />
    <glyph glyph-name="Aacute" unicode="&#xc1;" horiz-adv-x="790" 
d="M451 922l110 -49l-122 -115h-94zM514 278l-121 280l-120 -280h241zM338 705h114l308 -705h-130l-71 169h-331l-72 -169h-126z" />
    <glyph glyph-name="Edieresis" unicode="&#xcb;" horiz-adv-x="670" 
d="M186 876h123v-118h-123v118zM385 876h123v-118h-123v118zM90 700h519v-110h-396v-182h351v-110h-351v-188h401v-110h-524v700z" />
    <glyph glyph-name="Egrave" unicode="&#xc8;" horiz-adv-x="670" 
d="M205 873l110 49l106 -164h-94zM90 700h519v-110h-396v-182h351v-110h-351v-188h401v-110h-524v700z" />
    <glyph glyph-name="Iacute" unicode="&#xcd;" horiz-adv-x="317" 
d="M214 922l110 -49l-122 -115h-94zM97 700h123v-700h-123v700z" />
    <glyph glyph-name="Icircumflex" unicode="&#xce;" horiz-adv-x="317" 
d="M103 904h112l116 -146h-96l-77 67l-77 -67h-94zM97 700h123v-700h-123v700z" />
    <glyph glyph-name="Idieresis" unicode="&#xcf;" horiz-adv-x="317" 
d="M-2 876h123v-118h-123v118zM197 876h123v-118h-123v118zM97 700h123v-700h-123v700z" />
    <glyph glyph-name="Igrave" unicode="&#xcc;" horiz-adv-x="317" 
d="M-6 873l110 49l106 -164h-94zM97 700h123v-700h-123v700z" />
    <glyph glyph-name="Oacute" unicode="&#xd3;" horiz-adv-x="850" 
d="M488 922l110 -49l-122 -115h-94zM426 101q52 0 95.5 19.5t74.5 53t48.5 78.5t17.5 96v2q0 51 -17.5 96.5t-49 79t-75.5 53.5t-96 20t-95.5 -19.5t-74.5 -53t-48.5 -78.5t-17.5 -96v-2q0 -51 17.5 -96.5t49 -79t75.5 -53.5t96 -20zM424 -12q-81 0 -148 28.5t-115 77.5
t-75 114.5t-27 139.5v2q0 74 27 139.5t76 115t116 78.5t148 29t148 -28.5t115 -77.5t75 -114.5t27 -139.5v-2q0 -74 -27 -139.5t-76 -115t-116 -78.5t-148 -29z" />
    <glyph glyph-name="Ocircumflex" unicode="&#xd4;" horiz-adv-x="850" 
d="M369 904h112l116 -146h-96l-77 67l-77 -67h-94zM426 101q52 0 95.5 19.5t74.5 53t48.5 78.5t17.5 96v2q0 51 -17.5 96.5t-49 79t-75.5 53.5t-96 20t-95.5 -19.5t-74.5 -53t-48.5 -78.5t-17.5 -96v-2q0 -51 17.5 -96.5t49 -79t75.5 -53.5t96 -20zM424 -12q-81 0 -148 28.5
t-115 77.5t-75 114.5t-27 139.5v2q0 74 27 139.5t76 115t116 78.5t148 29t148 -28.5t115 -77.5t75 -114.5t27 -139.5v-2q0 -74 -27 -139.5t-76 -115t-116 -78.5t-148 -29z" />
    <glyph glyph-name="Ograve" unicode="&#xd2;" horiz-adv-x="850" 
d="M252 873l110 49l106 -164h-94zM426 101q52 0 95.5 19.5t74.5 53t48.5 78.5t17.5 96v2q0 51 -17.5 96.5t-49 79t-75.5 53.5t-96 20t-95.5 -19.5t-74.5 -53t-48.5 -78.5t-17.5 -96v-2q0 -51 17.5 -96.5t49 -79t75.5 -53.5t96 -20zM424 -12q-81 0 -148 28.5t-115 77.5
t-75 114.5t-27 139.5v2q0 74 27 139.5t76 115t116 78.5t148 29t148 -28.5t115 -77.5t75 -114.5t27 -139.5v-2q0 -74 -27 -139.5t-76 -115t-116 -78.5t-148 -29z" />
    <glyph glyph-name="Uacute" unicode="&#xda;" horiz-adv-x="757" 
d="M428 917l110 -49l-122 -115h-94zM377 -11q-68 0 -123 19.5t-94 58.5t-60 96.5t-21 133.5v403h123v-398q0 -98 47 -149t130 -51q82 0 129 49t47 146v403h123v-397q0 -78 -21.5 -137t-60.5 -98.5t-94.5 -59t-124.5 -19.5z" />
    <glyph glyph-name="Ucircumflex" unicode="&#xdb;" horiz-adv-x="757" 
d="M323 903h112l116 -146h-96l-77 67l-77 -67h-94zM377 -11q-68 0 -123 19.5t-94 58.5t-60 96.5t-21 133.5v403h123v-398q0 -98 47 -149t130 -51q82 0 129 49t47 146v403h123v-397q0 -78 -21.5 -137t-60.5 -98.5t-94.5 -59t-124.5 -19.5z" />
    <glyph glyph-name="Ugrave" unicode="&#xd9;" horiz-adv-x="757" 
d="M219 868l110 49l106 -164h-94zM377 -11q-68 0 -123 19.5t-94 58.5t-60 96.5t-21 133.5v403h123v-398q0 -98 47 -149t130 -51q82 0 129 49t47 146v403h123v-397q0 -78 -21.5 -137t-60.5 -98.5t-94.5 -59t-124.5 -19.5z" />
    <glyph glyph-name="dotlessi" unicode="&#x131;" horiz-adv-x="286" 
d="M83 528h121v-528h-121v528z" />
    <glyph glyph-name="circumflex" unicode="&#x2c6;" 
d="M194 741h112l116 -146h-96l-77 67l-77 -67h-94z" />
    <glyph glyph-name="tilde" unicode="&#x2dc;" 
d="M61 605q17 61 41.5 93t70.5 32q21 0 41 -6.5t38.5 -14t34.5 -13.5t30 -6q22 0 33 12t22 38l67 -21q-17 -60 -41.5 -92t-70.5 -32q-21 0 -41 6t-38.5 13.5t-35 14t-29.5 6.5q-22 0 -33 -12t-22 -38z" />
    <glyph glyph-name="macron" unicode="&#xaf;" 
d="M79 689h342v-89h-342v89z" />
    <glyph glyph-name="macron" unicode="&#x2c9;" 
d="M79 689h342v-89h-342v89z" />
    <glyph glyph-name="breve" unicode="&#x2d8;" 
d="M250 593q-72 0 -119 38.5t-52 109.5h83q9 -29 29.5 -46t58.5 -17t58.5 17t29.5 46h83q-5 -71 -52 -109.5t-119 -38.5z" />
    <glyph glyph-name="dotaccent" unicode="&#x2d9;" 
d="M187 714h126v-119h-126v119z" />
    <glyph glyph-name="ring" unicode="&#x2da;" 
d="M250 641q26 0 44 18t18 43v2q0 25 -18 43t-44 18t-44 -18t-18 -43v-2q0 -25 18 -43t44 -18zM250 593q-23 0 -43.5 8.5t-36 23.5t-25 35t-9.5 42v2q0 22 9.5 42t25 35t36 23.5t43.5 8.5q22 0 43 -8.5t36.5 -23.5t25 -35t9.5 -42v-2q0 -22 -9.5 -42t-25 -35t-36.5 -23.5
t-43 -8.5z" />
    <glyph glyph-name="cedilla" unicode="&#xb8;" 
d="M131 -121l90 131h91l-75 -175z" />
    <glyph glyph-name="hungarumlaut" unicode="&#x2dd;" 
d="M160 759l106 -49l-120 -115h-90zM344 759l106 -49l-122 -115h-90z" />
    <glyph glyph-name="ogonek" unicode="&#x2db;" 
d="M366 -164q-93 -6 -141.5 23t-48.5 85q0 17 4.5 34.5t10.5 31.5h86q-6 -23 -6 -44q0 -34 22 -52.5t73 -21.5v-56z" />
    <glyph glyph-name="caron" unicode="&#x2c7;" 
d="M78 741h96l77 -66l77 66h94l-116 -146h-112z" />
    <glyph glyph-name="Lslash" unicode="&#x141;" horiz-adv-x="649" 
d="M120 278l-75 -22v114l75 23v307h122v-270l202 60v-114l-202 -61v-203h369v-112h-491v278z" />
    <glyph glyph-name="lslash" unicode="&#x142;" horiz-adv-x="346" 
d="M113 297l-76 -23v115l76 23v318h120v-283l76 23v-115l-76 -23v-332h-120v297z" />
    <glyph glyph-name="Scaron" unicode="&#x160;" horiz-adv-x="640" 
d="M148 904h96l77 -66l77 66h94l-116 -146h-112zM335 -10q-81 0 -155 27.5t-137 84.5l74 88q51 -44 103 -67.5t118 -23.5q57 0 90.5 24t33.5 64v2q0 19 -6.5 33.5t-24 27.5t-48 24t-79.5 22q-56 13 -99.5 29.5t-73 40t-45 57.5t-15.5 82v2q0 45 18 82.5t49.5 64t75.5 41.5
t96 15q77 0 138.5 -22.5t115.5 -65.5l-66 -93q-48 35 -95 53.5t-95 18.5q-54 0 -84 -24t-30 -59v-2q0 -20 7 -35.5t25.5 -28t51 -23.5t82.5 -23q55 -14 97.5 -31t70.5 -41.5t42.5 -57t14.5 -75.5v-2q0 -49 -18.5 -88t-51.5 -66t-79 -41t-101 -14z" />
    <glyph glyph-name="scaron" unicode="&#x161;" 
d="M82 741h96l77 -66l77 66h94l-116 -146h-112zM257 -10q-57 0 -115.5 20t-108.5 59l54 82q43 -32 87.5 -48.5t85.5 -16.5q39 0 60.5 15.5t21.5 41.5v2q0 15 -9.5 26t-26 19t-38 15t-44.5 14q-29 8 -58.5 19t-53 28.5t-38.5 43.5t-15 64v2q0 37 14.5 67t40 51t60 32t73.5 11
q50 0 101 -16t93 -44l-48 -86q-38 23 -77 36.5t-72 13.5q-35 0 -54.5 -15t-19.5 -38v-2q0 -14 10 -24.5t26.5 -19t38 -16t44.5 -14.5q29 -9 58 -21t52.5 -29.5t38.5 -42.5t15 -61v-2q0 -42 -15 -73t-41.5 -51.5t-62.5 -31t-77 -10.5z" />
    <glyph glyph-name="Yacute" unicode="&#xdd;" horiz-adv-x="716" 
d="M417 917l110 -49l-122 -115h-94zM296 276l-278 424h145l196 -310l198 310h141l-278 -421v-279h-124v276z" />
    <glyph glyph-name="yacute" unicode="&#xfd;" horiz-adv-x="596" 
d="M350 758l110 -49l-122 -115h-94zM184 -163q-38 0 -67.5 8.5t-57.5 23.5l41 90q17 -9 34.5 -14.5t36.5 -5.5q26 0 43 13t32 48l-220 528h129l150 -392l137 392h126l-210 -543q-16 -41 -33 -69t-38 -45.5t-46 -25.5t-57 -8z" />
    <glyph glyph-name="Thorn" unicode="&#xde;" horiz-adv-x="673" 
d="M356 226q70 0 110.5 35.5t40.5 90.5v2q0 62 -41 93.5t-110 31.5h-143v-253h143zM90 700h123v-110h153q61 0 110.5 -16.5t84 -47.5t53 -74t18.5 -95v-2q0 -59 -22 -104t-60 -75t-89 -45t-109 -15h-139v-116h-123v700z" />
    <glyph glyph-name="thorn" unicode="&#xfe;" horiz-adv-x="670" 
d="M348 94q31 0 58.5 12t48 33.5t32.5 53t12 70.5v2q0 38 -12 69.5t-32.5 53.5t-48 34t-58.5 12t-59 -12t-49 -34.5t-33.5 -53.5t-12.5 -69v-2q0 -38 12.5 -69.5t33.5 -53.5t49 -34t59 -12zM76 730h121v-290q29 42 72 70.5t107 28.5q47 0 91 -18t78.5 -53t55.5 -86t21 -117
v-2q0 -66 -20.5 -117t-55 -86t-79 -53t-91.5 -18q-65 0 -108 28t-71 65v-242h-121v890z" />
    <glyph glyph-name="Zcaron" unicode="&#x17d;" horiz-adv-x="702" 
d="M183 904h96l77 -66l77 66h94l-116 -146h-112zM65 91l413 500h-400v109h560v-91l-413 -500h413v-109h-573v91z" />
    <glyph glyph-name="zcaron" unicode="&#x17e;" horiz-adv-x="560" 
d="M116 741h96l77 -66l77 66h94l-116 -146h-112zM52 83l305 346h-294v99h448v-83l-305 -346h305v-99h-459v83z" />
    <glyph glyph-name="eth" unicode="&#xf0;" horiz-adv-x="642" 
d="M321 91q35 0 63 12t48 33t31 49t11 60v2q0 31 -11.5 58.5t-32 47.5t-49.5 32t-64 12t-62.5 -11.5t-47.5 -31.5t-30.5 -47.5t-10.5 -59.5v-2q0 -31 11.5 -59t32 -49t49 -33.5t62.5 -12.5zM316 -12q-58 0 -107.5 20.5t-85.5 55.5t-56 82.5t-20 101.5v2q0 52 18 95.5t49 75
t73.5 48.5t91.5 17q43 0 75 -10.5t64 -30.5l-105 143l-119 -53l-48 63l121 53l-58 79h139l24 -35l99 43l47 -63l-102 -44l89 -129q45 -63 66.5 -119.5t21.5 -123.5v-2q0 -54 -19 -103t-54.5 -85.5t-87 -58.5t-116.5 -22z" />
    <glyph glyph-name="apple" horiz-adv-x="967" 
d="M417 64q0 -7 -2.5 -12t-9.5 -5q-6 0 -9 5t-3 12q0 16 12 16t12 -16zM352 64h-3q-8 0 -8 8q0 6 7 6q4 0 4 -4v-10zM553 79q4 0 0 -9q-5 9 0 9zM393 182q0 -7 -4 -7h-5q-11 0 -18.5 10t-7.5 22q0 17 14 17h6q3 -1 3.5 -1.5t2.5 -5.5zM716 187q0 -13 -11 -13q-9 0 -17 11.5
t-8 26.5q0 14 11 14q9 0 17 -11.5t8 -27.5zM275 200q-8 0 -11.5 5t-3.5 10q0 9 8 9t9 -5l3 -19h-5zM381 384q-13 0 -13 11t13 11h11v-22h-11zM684 535q0 -13 -11 -13q-9 0 -17 11.5t-8 26.5q0 14 11 14q9 0 17 -11.5t8 -27.5zM272 553q-3 -4 -7 -4t-4 2q0 3 4 3q5 0 7 -1z
M566 553q-3 -4 -7 -4t-4 2q0 3 4 3q5 0 7 -1zM171 548q-8 0 -11.5 5t-3.5 10q0 9 8 9t9 -5l3 -19h-5zM441 -88q0 13 -11 13t-11 -12q0 -13 11 -13t11 12zM800 -88q0 13 -11 13t-11 -12q0 -13 11 -13t11 12zM559 -80l-5 -12h10zM394 -83q0 8 -11 7v-13q11 0 11 6zM525 -82
q0 8 -11 6v-12q11 -1 11 6zM606 -83q0 8 -11 7v-13q11 0 11 6zM309 48q-2 0 -3 1q-3 1 -3 5v20q0 2 3 4q1 1 3 1v2h-18v-2q1 0 3 -1q3 -3 3 -4v-9q-2 0 -4 2l-8 8q-3 1 -1 3q1 1 2 1v2h-14v-2q1 0 3 -1t2.5 -1.5t2.5 -1.5l10 -9l-13 -13q-1 -1 -2 -1.5t-2 -1.5q-2 -1 -3 -2
v-2h17v2q-2 0 -3 1t1 4l8 8q2 2 4 2v-9q0 -2 -3 -5q-2 -1 -3 -1v-2h18v2zM364 48q-2 0 -3 1q-2 2 -2 4v20q0 3 2 5q1 1 3 1v2h-18q-13 0 -13 -9q0 -5 9 -9l-7 -10q-2 -2 -3.5 -2.5t-2.5 -1.5l-2 -1v-2h11l7 12q3 4 7 4v-9q0 -2 -1 -2.5t-2 -1.5t-2 -1v-2h17v2zM425 64
q0 8 -5 13t-15 5t-15 -5t-5 -13t5 -13.5t15 -5.5t15 5.5t5 13.5zM480 81h-15v-2q1 0 2 -1t-1 -4l-6 -9l-6 9q-2 2 0 4q1 1 3 1v2h-15v-2q1 0 3 -1t5 -4l8 -12v-8q0 -2 -3 -5q-1 -1 -2 -1v-2h17v2q-2 0 -3 1q-2 2 -2 5v8l8 12q1 2 2.5 2.5t2.5 1.5t2 1v2zM568 81v-2q1 0 2 -1
t0 -4l-9 -19l-5 10l4 8q1 2 2 2.5t2 1.5l2 2v2h-26l1 -2q1 0 2 -1l2 -2l3 -3l3 -5l-7 -13l-8 18q-2 3 0 5q1 1 2 1v2h-13v-2q1 0 2 -1q3 -3 4 -5l13 -27h1q1 -1 1 0l8 16l9 -16h1l12 27q1 2 2.5 3t2.5 2t2 1v2h-15zM633 48q-2 -1 -3 0q-2 0 -2 5v21q0 3 2 5h3v2h-29l-2 -10
l2 -1q0 2 2 4q2 4 7 4h4q4 0 4 -3v-10h-4q-3 0 -5 2q-1 1 -1 3h-2v-13h2q0 1 1 3q3 3 5 3h4v-11q0 -3 -4 -3h-4q-4 0 -8 4q-2 2 -2 5l-2 -1l2 -11h30v2zM694 48q-2 0 -3 1q-3 1 -3 4v20q0 2 3 4q1 1 3 2v2h-10l-24 -26v18q0 3 3 5q1 1 3 1v2h-15v-2q1 0 3 -1q3 -3 3 -5v-28
h3l25 28v-20q0 -1 -3 -4q-1 -1 -2 -1v-2h14v2zM827 133h-685v-6h685v6zM306 174q-2 0 -4 1t-3.5 2t-2.5 5l-7 35q-1 5 3 7q2 1 4 1l-1 3h-27q-20 0 -20 -15q0 -6 5.5 -10t13.5 -5l-9 -16q-2 -4 -4.5 -5t-4.5 -2q-3 -1 -5 -1l1 -3h19l12 23q1 3 5 3l3 -15q1 -5 -3 -7
q-2 -1 -4 -1l1 -3h29zM413 175q-2 -1 -4 0q-5 2 -6 9l-8 31q-3 9 8 10l-1 3h-30q-9 0 -17 -5.5t-8 -16.5q0 -16 11 -25.5t24 -9.5h32zM522 174q-1 0 -3 1q-5 2 -6 9l-7 32q-1 6 3 8q2 1 5 1l-1 3h-14l-29 -42l-5 30q-1 6 3 8q2 1 4 1l-1 3h-21l1 -3q2 0 4 -1q3 -2 5 -8
l8 -45l3 -1l30 44l6 -30q1 -7 -2 -9q-2 -1 -4 -1l1 -3h21zM620 228h-29l1 -3q2 0 4 -1q5 -2 6 -8l5 -21q2 -10 1 -15t-12 -5q-8 0 -13 6.5t-7 15.5l-4 19q-1 7 3 9q2 1 4 0v3h-24l1 -3q2 0 5 -1q5 -2 6 -8l4 -19q2 -8 8 -17.5t20 -9.5q17 0 19 8t0 16l-5 22q-2 4 -0.5 6
t3.5 3t5 0zM822 174q-2 0 -4 1t-3.5 2t-2.5 5l-7 35q-1 5 3 7q2 1 4 1l-1 3h-45v-10v-7h4q-1 3 1 6q2 7 12 7h4q5 0 6 -6l3 -16h-4q-5 0 -9 4q-2 2 -3 5h-3l5 -23h3q0 2 1 5q2 6 7 6h4l3 -17q1 -5 -3 -7q-2 -1 -4 -1l1 -3h29zM203 217q-3 5 -6.5 9t-11.5 4q-15 0 -14 -23
q-3 10 -8 16.5t-13 6.5q-5 0 -8.5 -3t-3.5 -9l3 -1q0 6 8 6q10 0 15.5 -10.5t8.5 -22.5q2 -7 1 -9.5t-3 -4.5t-4 -1l1 -4h28l-1 4q-2 -1 -4 0q-5 2 -6 9q-5 17 -5 25q0 13 9 13q5 0 7.5 -2.5l4.5 -4.5zM728 192q0 15 -11.5 26.5t-25.5 11.5q-7 0 -15 -5t-8 -17
q0 -16 11.5 -27t25.5 -11q7 0 15 5t8 17zM827 277h-685v-6h685v6zM283 341h-14v65h14v34h-141v-62h41v28h33v-20h-24v-24h24v-21h-33v28h-41v-61h141v33zM458 341h-14v65h14v34h-96q-22 0 -34.5 -11.5t-12.5 -28.5t12.5 -28.5t34.5 -11.5h30v-19h-15v-33h81v33zM648 440h-81
v-34h11l-15 -23l-15 23h10v34h-62v-34h12l37 -46v-19h-14v-33h81v33h-15v20l37 45h14v34zM827 440h-147v-62h36v28h11v-65h-14v-33h81v33h-14v65h11v-28h36v62zM827 481h-685v-6h685v6zM400 521q0 2 -3 5t-10 4q-4 3 -4.5 10.5t-2 16t-6 15t-16.5 6.5q-5 0 -9 -3.5t-4 -6.5
q0 -5 5 -5q4 0 4 6t5 6t6.5 -5t2.5 -12t3.5 -14.5t8.5 -13.5q-11 0 -14.5 -6.5t-8.5 -6.5t-5 4q0 2 1 2.5t1 2.5q0 5 -5 5t-5 -7q0 -5 5 -8.5t10 -3.5q13 0 15 6.5t10 6.5q3 -7 12 -7q4 0 4 3zM202 522q-2 0 -4 1t-3.5 2t-2.5 5l-7 35q-1 5 3 7q2 1 4 1l-1 3h-27
q-20 0 -20 -15q0 -6 5.5 -10t13.5 -5l-9 -16q-2 -4 -4.5 -5t-4.5 -2q-3 -1 -5 -1l1 -3h19l12 23q1 3 5 3l3 -15q1 -5 -3 -7q-2 -1 -4 -1l1 -3h29zM497 522q-2 0 -4 1t-3.5 2t-2.5 5l-7 35q-1 5 3 7q2 1 4 1l-1 3h-45v-10v-7h4q-1 3 1 6q2 7 12 7h4q5 0 6 -6l3 -16h-4
q-5 0 -9 4q-2 2 -3 5h-3l5 -23h3q0 2 1 5q2 6 7 6h4l3 -17q1 -5 -3 -7q-2 -1 -4 -1l1 -3h29zM820 522q-2 0 -4 1t-3.5 2t-2.5 5l-7 35q-1 5 3 7q2 1 4 1l-1 3h-28l1 -3q2 0 4 -1q4 -2 5 -7l3 -15h-24l-3 15q-1 5 3 7q2 1 4 1l-1 3h-29l1 -3q2 0 4 -1q5 -2 6 -7l7 -35
q1 -5 -3 -7q-2 -1 -4 -1l1 -3h29l-1 3q-2 0 -4 1t-3.5 2t-2.5 5l-3 16h24l3 -16q1 -5 -3 -7q-2 -1 -4 -1l1 -3h29zM295 537q0 12 -14 17q5 3 5 9q0 5 -5 10t-16 5q-13 0 -13 -11q0 -6 5 -6q4 0 4 3t-1.5 3.5t-1.5 2.5q0 5 7 5q10 0 10 -12q0 -4 -2 -6q-16 2 -16 -6
q0 -6 8 -6q6 0 11 5q6 -5 6 -15q0 -14 -12 -14t-12 9q0 3 3 3q1 0 2 -1t3 -1q4 0 4 5t-7 5q-9 0 -9 -10q0 -13 16 -13q13 0 19 5.5t6 13.5zM589 537q0 12 -14 17q5 3 5 9q0 5 -5 10t-16 5q-13 0 -13 -11q0 -6 5 -6q4 0 4 3t-1.5 3.5t-1.5 2.5q0 5 7 5q10 0 10 -12
q0 -4 -2 -6q-16 2 -16 -6q0 -6 8 -6q6 0 11 5q6 -5 6 -15q0 -14 -12 -14t-12 9q0 3 3 3q1 0 2 -1t3 -1q4 0 4 5t-7 5q-9 0 -9 -10q0 -13 16 -13q13 0 19 5.5t6 13.5zM696 540q0 15 -11.5 26.5t-25.5 11.5q-7 0 -15 -5t-8 -17q0 -16 11.5 -27t25.5 -11q7 0 15 5t8 17z
M827 624h-685v-6h685v6zM439 664q-2 -1 -3 0q-2 0 -2 5v21q0 3 2 5h3v2h-29l-2 -10l2 -1q0 2 2 4q2 4 7 4h4q4 0 4 -3v-10h-4q-3 0 -5 2q-1 1 -1 3h-2v-13h2q0 1 1 3q3 3 5 3h4v-11q0 -3 -4 -3h-4q-4 0 -8 4q-2 2 -2 5l-2 -1l2 -11h30v2zM504 664q-2 -1 -3 0q-3 0 -3 5v21
q0 3 3 5h3v2h-18v-1v-1h2q3 -3 3 -5v-9h-17v9q0 3 2 5h3v1v1h-17v-2h2q3 -3 3 -5v-21q0 -2 -1 -2.5t-2 -1.5t-2 -1v-2h17v2q-2 0 -3 1q-2 2 -2 4v10h17v-10q0 -5 -3 -5q-1 -1 -2 0v-2h18v2zM559 686v4q0 2 -0.5 4t-0.5 4q-2 -1 -17 -1t-18 1q0 -2 -0.5 -4t-0.5 -4v-4h2
q1 2 3 4q5 5 7 5q3 0 3 -3v-23q0 -5 -3 -5q-1 -1 -2 0v-2h17v2q-2 -1 -3 0q-2 0 -2 5v23q0 3 3 3t8 -5q2 -2 2 -4h2zM284 -101q0 -4 -4 -4t-4 4t4 4t4 -4zM716 -101q0 -4 -4 -4t-4 4t4 4t4 -4zM143 -105h-1l-11 23l-10 -23h-1l-12 34l6 1l7 -23l10 23h1l10 -23l7 22h6z
M199 -105h-1l-11 23l-10 -23h-1l-12 34l6 1l7 -23l10 23h1l10 -23l7 22h6zM255 -105h-1l-11 23l-10 -23h-1l-12 34l6 1l7 -23l10 23h1l10 -23l7 22h6zM323 -76h-12v-28h-6v28h-12v5h30v-5zM351 -90v-14h-6v14l-14 19l6 1l11 -15l9 14h7zM400 -82q0 -12 -17 -12v-10h-6v33
q14 2 18.5 -2t4.5 -9zM447 -87q0 -8 -4.5 -13t-12.5 -5t-12.5 5t-4.5 12q0 8 5 13t13 5q7 0 11.5 -5t4.5 -12zM491 -101q-6 -4 -13 -4q-8 0 -13 4.5t-5 12.5t5.5 13t13.5 5q6 0 12 -4l-2 -5q-4 4 -11 4q-12 0 -12 -13q0 -12 13 -12q2 0 6 2v7h-9v5h15v-15zM527 -104l-8 11
h-5v-11h-6v33q14 2 18.5 -1.5t4.5 -8.5q0 -7 -7 -10l10 -13h-7zM570 -104l-4 8h-14l-3 -8h-6l15 34h2l16 -34h-6zM612 -82q0 -12 -17 -12v-10h-6v33q14 2 18.5 -2t4.5 -9zM650 -104v15h-16v-15h-6v33h6v-13h16v13h6v-33h-6zM689 -90v-14h-6v14l-14 19l6 1l11 -15l9 14h7z
M757 -102q-3 -3 -10 -3q-18 0 -18 17q0 8 5 13t13 5q6 0 11 -3l-2 -5q-3 3 -9 3q-5 0 -8.5 -3.5t-3.5 -8.5q0 -13 13 -13q4 0 10 4zM806 -87q0 -8 -4.5 -13t-12.5 -5t-12.5 5t-4.5 12q0 8 5 13t13 5q7 0 11.5 -5t4.5 -12zM853 -104l-3 20l-10 -21h-2l-10 21l-3 -20h-6l6 34
h1l13 -26l13 26h1l6 -34h-6zM101 0v750h767v-750h-767z" />
    <glyph glyph-name="Eth" unicode="&#xd0;" horiz-adv-x="812" 
d="M381 112q55 0 100 17.5t76.5 49t49 75t17.5 94.5v2q0 51 -17.5 95t-49 75.5t-76.5 49.5t-100 18h-139v-181h176v-110h-176v-185h139zM120 297h-75v110h75v293h261q82 0 150.5 -26.5t118 -73.5t76.5 -110.5t27 -137.5v-2q0 -74 -27 -138t-76.5 -111t-118 -74t-150.5 -27
h-261v297z" />
  </font>
</defs></svg>
