<?xml version="1.0" encoding="UTF-8"?>
<svg width="47px" height="3px" viewBox="0 0 47 3" version="1.1" xmlns="http://www.w3.org/2000/svg" xmlns:xlink="http://www.w3.org/1999/xlink">
    <!-- Generator: Sketch 52.4 (67378) - http://www.bohemiancoding.com/sketch -->
    <title>Group 7 Copy 8</title>
    <desc>Created with Sketch.</desc>
    <g id="01-HOME" stroke="none" stroke-width="1" fill="none" fill-rule="evenodd">
        <g transform="translate(-75.000000, -1030.000000)" id="Group-7-Copy-8">
            <g transform="translate(75.000000, 1030.000000)">
                <polygon id="Fill-18" fill="#00ADEE" points="0 3 16 3 16 0 0 0"></polygon>
                <polygon id="Fill-20" fill="#EB008B" points="15 3 31 3 31 0 15 0"></polygon>
                <polygon id="Fill-21" fill="#FFF100" points="31 3 47 3 47 0 31 0"></polygon>
            </g>
        </g>
    </g>
</svg>