<?xml version="1.0" encoding="UTF-8"?>
<svg width="52px" height="52px" viewBox="0 0 52 52" version="1.1" xmlns="http://www.w3.org/2000/svg" xmlns:xlink="http://www.w3.org/1999/xlink">
    <!-- Generator: Sketch 50.2 (55047) - http://www.bohemiancoding.com/sketch -->
    <title>Group 40</title>
    <desc>Created with Sketch.</desc>
    <defs>
        <path d="M2.95133333,19.3546667 C2.95133333,28.6646667 10.5006667,36.214 19.8043333,36.214 C29.1206667,36.214 36.67,28.6646667 36.67,19.3546667 C36.67,10.0446667 29.1206667,2.50166667 19.8043333,2.50166667 C10.5006667,2.50166667 2.95133333,10.0446667 2.95133333,19.3546667" id="path-1"></path>
        <linearGradient x1="85.3439463%" y1="85.3553654%" x2="14.644876%" y2="14.6430133%" id="linearGradient-3">
            <stop stop-color="#FFFFFF" offset="0%"></stop>
            <stop stop-color="#EDF2F4" offset="100%"></stop>
        </linearGradient>
    </defs>
    <g id="Page-1" stroke="none" stroke-width="1" fill="none" fill-rule="evenodd">
        <g id="Desktop-Copy-14" transform="translate(-103.000000, -4010.000000)">
            <g id="Group-40" transform="translate(103.000000, 4010.000000)">
                <path d="M52,26 C52,40.3629287 40.3580202,52 25.9968381,52 C11.6419798,52 0,40.3629287 0,26 C0,11.6370713 11.6419798,0 25.9968381,0 C40.3580202,0 52,11.6370713 52,26" id="Fill-4" fill="#CD200C"></path>
                <g id="Group-9" transform="translate(6.000000, 6.000000)">
                    <mask id="mask-2" fill="white">
                        <use xlink:href="#path-1"></use>
                    </mask>
                    <g id="Clip-8"></g>
                    <path d="M2.95133333,19.3546667 C2.95133333,28.6646667 10.5006667,36.214 19.8043333,36.214 C29.1206667,36.214 36.67,28.6646667 36.67,19.3546667 C36.67,10.0446667 29.1206667,2.50166667 19.8043333,2.50166667 C10.5006667,2.50166667 2.95133333,10.0446667 2.95133333,19.3546667" id="Fill-7" fill="url(#linearGradient-3)" mask="url(#mask-2)"></path>
                </g>
                <g id="arrow-left" transform="translate(26.500000, 26.000000) scale(-1, 1) translate(-26.500000, -26.000000) translate(22.000000, 19.000000)" fill="#CD200C" fill-rule="nonzero">
                    <polygon id="Shape" points="7.2 14 9 12.25 3.6 7 9 1.75 7.2 0 0 7"></polygon>
                </g>
            </g>
        </g>
    </g>
</svg>