<?xml version="1.0" encoding="UTF-8"?>
<svg width="133px" height="49px" viewBox="0 0 133 49" version="1.1" xmlns="http://www.w3.org/2000/svg" xmlns:xlink="http://www.w3.org/1999/xlink">
    <!-- Generator: Sketch 52.4 (67378) - http://www.bohemiancoding.com/sketch -->
    <title>Group</title>
    <desc>Created with Sketch.</desc>
    <g id="15-4-MI-CUENTA-·-EDITAR-DIRECCIÓN" stroke="none" stroke-width="1" fill="none" fill-rule="evenodd">
        <g id="EDITAR-guardando-" transform="translate(-584.000000, -418.000000)">
            <g id="Group" transform="translate(584.000000, 418.000000)">
                <path d="M76.8350288,19 L76.8350288,25.9279868 L55.1649712,25.9279868 L55.1649712,19 L51,19 L51,27.9644992 C51,29.088476 51.9310666,30 53.0855892,30 L78.9144108,30 C80.0678989,30 81,29.0894877 81,27.9644992 L81,19 L76.8350288,19 Z" id="Path" fill="#00ADEE"></path>
                <path d="M66.1334068,18.7317133 L60.3687833,11.6511541 C60.3687833,11.6511541 59.4916884,10.8094164 60.4427913,10.8094164 C61.3938942,10.8094164 63.6911426,10.8094164 63.6911426,10.8094164 C63.6911426,10.8094164 63.6911426,10.243175 63.6911426,9.36992301 C63.6911426,6.88029065 63.6911426,2.34934274 63.6911426,0.502196156 C63.6911426,0.502196156 63.5621287,0 64.3062092,0 C65.0562903,0 68.3416457,0 68.8787038,0 C69.4147618,0 69.4027605,0.422902026 69.4027605,0.422902026 C69.4027605,2.21413609 69.4027605,6.90163907 69.4027605,9.30994412 C69.4027605,10.0906863 69.4027605,10.5969488 69.4027605,10.5969488 C69.4027605,10.5969488 71.2449597,10.5969488 72.4010848,10.5969488 C73.5552096,10.5969488 72.6861156,11.4783336 72.6861156,11.4783336 C72.6861156,11.4783336 67.7815851,18.0963437 67.0975111,18.7906756 C66.6054579,19.2938883 66.1334068,18.7317133 66.1334068,18.7317133 Z" id="Path" fill="#00ADEE"></path>
                <path d="M5.216,48.144 C4.55999672,48.144 3.96400268,48.0340011 3.428,47.814 C2.89199732,47.5939989 2.4340019,47.2900019 2.054,46.902 C1.6739981,46.5139981 1.38000104,46.0580026 1.172,45.534 C0.96399896,45.0099974 0.86,44.4400031 0.86,43.824 L0.86,43.8 C0.86,43.2159971 0.96599894,42.6600026 1.178,42.132 C1.39000106,41.6039974 1.68799808,41.142002 2.072,40.746 C2.45600192,40.349998 2.91399734,40.0360012 3.446,39.804 C3.97800266,39.5719988 4.55999684,39.456 5.192,39.456 C5.56000184,39.456 5.8939985,39.4819997 6.194,39.534 C6.4940015,39.5860003 6.77199872,39.6599995 7.028,39.756 C7.28400128,39.8520005 7.52599886,39.9699993 7.754,40.11 C7.98200114,40.2500007 8.20399892,40.4119991 8.42,40.596 L7.484,41.712 C7.3239992,41.5759993 7.16000084,41.4520006 6.992,41.34 C6.82399916,41.2279994 6.64800092,41.1340004 6.464,41.058 C6.27999908,40.9819996 6.0780011,40.9220002 5.858,40.878 C5.6379989,40.8339998 5.39600132,40.812 5.132,40.812 C4.74799808,40.812 4.39000166,40.8919992 4.058,41.052 C3.72599834,41.2120008 3.43800122,41.4259987 3.194,41.694 C2.94999878,41.9620013 2.7580007,42.2759982 2.618,42.636 C2.4779993,42.9960018 2.408,43.375998 2.408,43.776 L2.408,43.8 C2.408,44.2320022 2.47599932,44.6319982 2.612,45 C2.74800068,45.3680018 2.94199874,45.6839987 3.194,45.948 C3.44600126,46.2120013 3.74599826,46.4199992 4.094,46.572 C4.44200174,46.7240008 4.83199784,46.8 5.264,46.8 C5.664002,46.8 6.03799826,46.7420006 6.386,46.626 C6.73400174,46.5099994 7.03599872,46.356001 7.292,46.164 L7.292,44.592 L5.144,44.592 L5.144,43.308 L8.72,43.308 L8.72,46.836 C8.51199896,47.0120009 8.28200126,47.1799992 8.03,47.34 C7.77799874,47.5000008 7.50600146,47.6399994 7.214,47.76 C6.92199854,47.8800006 6.60800168,47.9739997 6.272,48.042 C5.93599832,48.1100003 5.58400184,48.144 5.216,48.144 Z M14.084,48.132 C13.5399973,48.132 13.0480022,48.0540008 12.608,47.898 C12.1679978,47.7419992 11.7920016,47.5080016 11.48,47.196 C11.1679984,46.8839984 10.9280008,46.4980023 10.76,46.038 C10.5919992,45.5779977 10.508,45.044003 10.508,44.436 L10.508,39.6 L11.984,39.6 L11.984,44.376 C11.984,45.1600039 12.1719981,45.755998 12.548,46.164 C12.9240019,46.572002 13.4439967,46.776 14.108,46.776 C14.7640033,46.776 15.2799981,46.580002 15.656,46.188 C16.0320019,45.795998 16.22,45.2120039 16.22,44.436 L16.22,39.6 L17.696,39.6 L17.696,44.364 C17.696,44.9880031 17.6100009,45.5359976 17.438,46.008 C17.2659991,46.4800024 17.0240016,46.8739984 16.712,47.19 C16.3999984,47.5060016 16.0220022,47.7419992 15.578,47.898 C15.1339978,48.0540008 14.6360028,48.132 14.084,48.132 Z M24.812,44.664 L23.36,41.304 L21.92,44.664 L24.812,44.664 Z M22.7,39.54 L24.068,39.54 L27.764,48 L26.204,48 L25.352,45.972 L21.38,45.972 L20.516,48 L19.004,48 L22.7,39.54 Z M32.84,43.764 C33.3680026,43.764 33.7879984,43.6380013 34.1,43.386 C34.4120016,43.1339987 34.568,42.7920022 34.568,42.36 L34.568,42.336 C34.568,41.8799977 34.4160015,41.5340012 34.112,41.298 C33.8079985,41.0619988 33.3800028,40.944 32.828,40.944 L30.68,40.944 L30.68,43.764 L32.84,43.764 Z M29.204,39.6 L32.948,39.6 C33.4760026,39.6 33.943998,39.6739993 34.352,39.822 C34.760002,39.9700007 35.0999986,40.1759987 35.372,40.44 C35.5960011,40.6720012 35.7679994,40.9399985 35.888,41.244 C36.0080006,41.5480015 36.068,41.8839982 36.068,42.252 L36.068,42.276 C36.068,42.6200017 36.0180005,42.9299986 35.918,43.206 C35.8179995,43.4820014 35.6800009,43.7259989 35.504,43.938 C35.3279991,44.1500011 35.1180012,44.3299993 34.874,44.478 C34.6299988,44.6260007 34.3600015,44.7399996 34.064,44.82 L36.332,48 L34.592,48 L32.528,45.072 L30.68,45.072 L30.68,48 L29.204,48 L29.204,39.6 Z M41.012,46.656 C41.4520022,46.656 41.8519982,46.5860007 42.212,46.446 C42.5720018,46.3059993 42.8779987,46.1100013 43.13,45.858 C43.3820013,45.6059987 43.5779993,45.3060017 43.718,44.958 C43.8580007,44.6099983 43.928,44.232002 43.928,43.824 L43.928,43.8 C43.928,43.391998 43.8580007,43.0120018 43.718,42.66 C43.5779993,42.3079982 43.3820013,42.0060013 43.13,41.754 C42.8779987,41.5019987 42.5720018,41.3040007 42.212,41.16 C41.8519982,41.0159993 41.4520022,40.944 41.012,40.944 L39.356,40.944 L39.356,46.656 L41.012,46.656 Z M37.88,39.6 L41.012,39.6 C41.6680033,39.6 42.2699973,39.7059989 42.818,39.918 C43.3660027,40.1300011 43.837998,40.4239981 44.234,40.8 C44.630002,41.1760019 44.9359989,41.6179975 45.152,42.126 C45.3680011,42.6340025 45.476,43.183997 45.476,43.776 L45.476,43.8 C45.476,44.392003 45.3680011,44.9439974 45.152,45.456 C44.9359989,45.9680026 44.630002,46.4119981 44.234,46.788 C43.837998,47.1640019 43.3660027,47.4599989 42.818,47.676 C42.2699973,47.8920011 41.6680033,48 41.012,48 L37.88,48 L37.88,39.6 Z M52.352,44.664 L50.9,41.304 L49.46,44.664 L52.352,44.664 Z M50.24,39.54 L51.608,39.54 L55.304,48 L53.744,48 L52.892,45.972 L48.92,45.972 L48.056,48 L46.544,48 L50.24,39.54 Z M56.744,39.6 L58.112,39.6 L62.612,45.408 L62.612,39.6 L64.064,39.6 L64.064,48 L62.828,48 L58.196,42.024 L58.196,48 L56.744,48 L56.744,39.6 Z M69.356,46.656 C69.7960022,46.656 70.1959982,46.5860007 70.556,46.446 C70.9160018,46.3059993 71.2219987,46.1100013 71.474,45.858 C71.7260013,45.6059987 71.9219993,45.3060017 72.062,44.958 C72.2020007,44.6099983 72.272,44.232002 72.272,43.824 L72.272,43.8 C72.272,43.391998 72.2020007,43.0120018 72.062,42.66 C71.9219993,42.3079982 71.7260013,42.0060013 71.474,41.754 C71.2219987,41.5019987 70.9160018,41.3040007 70.556,41.16 C70.1959982,41.0159993 69.7960022,40.944 69.356,40.944 L67.7,40.944 L67.7,46.656 L69.356,46.656 Z M66.224,39.6 L69.356,39.6 C70.0120033,39.6 70.6139973,39.7059989 71.162,39.918 C71.7100027,40.1300011 72.181998,40.4239981 72.578,40.8 C72.974002,41.1760019 73.2799989,41.6179975 73.496,42.126 C73.7120011,42.6340025 73.82,43.183997 73.82,43.776 L73.82,43.8 C73.82,44.392003 73.7120011,44.9439974 73.496,45.456 C73.2799989,45.9680026 72.974002,46.4119981 72.578,46.788 C72.181998,47.1640019 71.7100027,47.4599989 71.162,47.676 C70.6139973,47.8920011 70.0120033,48 69.356,48 L66.224,48 L66.224,39.6 Z M79.64,46.788 C80.0560021,46.788 80.4379983,46.7100008 80.786,46.554 C81.1340017,46.3979992 81.4319988,46.1860013 81.68,45.918 C81.9280012,45.6499987 82.1219993,45.3360018 82.262,44.976 C82.4020007,44.6159982 82.472,44.232002 82.472,43.824 L82.472,43.8 C82.472,43.391998 82.4020007,43.0060018 82.262,42.642 C82.1219993,42.2779982 81.9260013,41.9620013 81.674,41.694 C81.4219987,41.4259987 81.1200018,41.2120008 80.768,41.052 C80.4159982,40.8919992 80.0320021,40.812 79.616,40.812 C79.1999979,40.812 78.8180017,40.8899992 78.47,41.046 C78.1219983,41.2020008 77.8240012,41.4139987 77.576,41.682 C77.3279988,41.9500013 77.1340007,42.2639982 76.994,42.624 C76.8539993,42.9840018 76.784,43.367998 76.784,43.776 L76.784,43.8 C76.784,44.208002 76.8539993,44.5939982 76.994,44.958 C77.1340007,45.3220018 77.3299987,45.6379987 77.582,45.906 C77.8340013,46.1740013 78.1359982,46.3879992 78.488,46.548 C78.8400018,46.7080008 79.2239979,46.788 79.64,46.788 Z M79.616,48.144 C78.9679968,48.144 78.3760027,48.0300011 77.84,47.802 C77.3039973,47.5739989 76.8440019,47.264002 76.46,46.872 C76.0759981,46.479998 75.7760011,46.0220026 75.56,45.498 C75.3439989,44.9739974 75.236,44.416003 75.236,43.824 L75.236,43.8 C75.236,43.207997 75.3439989,42.6500026 75.56,42.126 C75.7760011,41.6019974 76.079998,41.142002 76.472,40.746 C76.864002,40.349998 77.3279973,40.0360012 77.864,39.804 C78.4000027,39.5719988 78.9919968,39.456 79.64,39.456 C80.2880032,39.456 80.8799973,39.5699989 81.416,39.798 C81.9520027,40.0260011 82.4119981,40.335998 82.796,40.728 C83.1800019,41.120002 83.4799989,41.5779974 83.696,42.102 C83.9120011,42.6260026 84.02,43.183997 84.02,43.776 L84.02,43.8 C84.02,44.392003 83.9120011,44.9499974 83.696,45.474 C83.4799989,45.9980026 83.176002,46.457998 82.784,46.854 C82.391998,47.250002 81.9280027,47.5639988 81.392,47.796 C80.8559973,48.0280012 80.2640032,48.144 79.616,48.144 Z M92.54,46.656 C92.9800022,46.656 93.3799982,46.5860007 93.74,46.446 C94.1000018,46.3059993 94.4059987,46.1100013 94.658,45.858 C94.9100013,45.6059987 95.1059993,45.3060017 95.246,44.958 C95.3860007,44.6099983 95.456,44.232002 95.456,43.824 L95.456,43.8 C95.456,43.391998 95.3860007,43.0120018 95.246,42.66 C95.1059993,42.3079982 94.9100013,42.0060013 94.658,41.754 C94.4059987,41.5019987 94.1000018,41.3040007 93.74,41.16 C93.3799982,41.0159993 92.9800022,40.944 92.54,40.944 L90.884,40.944 L90.884,46.656 L92.54,46.656 Z M89.408,39.6 L92.54,39.6 C93.1960033,39.6 93.7979973,39.7059989 94.346,39.918 C94.8940027,40.1300011 95.365998,40.4239981 95.762,40.8 C96.158002,41.1760019 96.4639989,41.6179975 96.68,42.126 C96.8960011,42.6340025 97.004,43.183997 97.004,43.776 L97.004,43.8 C97.004,44.392003 96.8960011,44.9439974 96.68,45.456 C96.4639989,45.9680026 96.158002,46.4119981 95.762,46.788 C95.365998,47.1640019 94.8940027,47.4599989 94.346,47.676 C93.7979973,47.8920011 93.1960033,48 92.54,48 L89.408,48 L89.408,39.6 Z M103.88,44.664 L102.428,41.304 L100.988,44.664 L103.88,44.664 Z M101.768,39.54 L103.136,39.54 L106.832,48 L105.272,48 L104.42,45.972 L100.448,45.972 L99.584,48 L98.072,48 L101.768,39.54 Z M110.336,40.968 L107.672,40.968 L107.672,39.6 L114.488,39.6 L114.488,40.968 L111.824,40.968 L111.824,48 L110.336,48 L110.336,40.968 Z M120.08,46.788 C120.496002,46.788 120.877998,46.7100008 121.226,46.554 C121.574002,46.3979992 121.871999,46.1860013 122.12,45.918 C122.368001,45.6499987 122.561999,45.3360018 122.702,44.976 C122.842001,44.6159982 122.912,44.232002 122.912,43.824 L122.912,43.8 C122.912,43.391998 122.842001,43.0060018 122.702,42.642 C122.561999,42.2779982 122.366001,41.9620013 122.114,41.694 C121.861999,41.4259987 121.560002,41.2120008 121.208,41.052 C120.855998,40.8919992 120.472002,40.812 120.056,40.812 C119.639998,40.812 119.258002,40.8899992 118.91,41.046 C118.561998,41.2020008 118.264001,41.4139987 118.016,41.682 C117.767999,41.9500013 117.574001,42.2639982 117.434,42.624 C117.293999,42.9840018 117.224,43.367998 117.224,43.776 L117.224,43.8 C117.224,44.208002 117.293999,44.5939982 117.434,44.958 C117.574001,45.3220018 117.769999,45.6379987 118.022,45.906 C118.274001,46.1740013 118.575998,46.3879992 118.928,46.548 C119.280002,46.7080008 119.663998,46.788 120.08,46.788 Z M120.056,48.144 C119.407997,48.144 118.816003,48.0300011 118.28,47.802 C117.743997,47.5739989 117.284002,47.264002 116.9,46.872 C116.515998,46.479998 116.216001,46.0220026 116,45.498 C115.783999,44.9739974 115.676,44.416003 115.676,43.824 L115.676,43.8 C115.676,43.207997 115.783999,42.6500026 116,42.126 C116.216001,41.6019974 116.519998,41.142002 116.912,40.746 C117.304002,40.349998 117.767997,40.0360012 118.304,39.804 C118.840003,39.5719988 119.431997,39.456 120.08,39.456 C120.728003,39.456 121.319997,39.5699989 121.856,39.798 C122.392003,40.0260011 122.851998,40.335998 123.236,40.728 C123.620002,41.120002 123.919999,41.5779974 124.136,42.102 C124.352001,42.6260026 124.46,43.183997 124.46,43.776 L124.46,43.8 C124.46,44.392003 124.352001,44.9499974 124.136,45.474 C123.919999,45.9980026 123.616002,46.457998 123.224,46.854 C122.831998,47.250002 122.368003,47.5639988 121.832,47.796 C121.295997,48.0280012 120.704003,48.144 120.056,48.144 Z M129.188,48.12 C128.539997,48.12 127.920003,48.0100011 127.328,47.79 C126.735997,47.5699989 126.188003,47.2320023 125.684,46.776 L126.572,45.72 C126.980002,46.0720018 127.391998,46.3419991 127.808,46.53 C128.224002,46.7180009 128.695997,46.812 129.224,46.812 C129.680002,46.812 130.041999,46.716001 130.31,46.524 C130.578001,46.331999 130.712,46.0760016 130.712,45.756 L130.712,45.732 C130.712,45.5799992 130.686,45.4460006 130.634,45.33 C130.582,45.2139994 130.486001,45.1040005 130.346,45 C130.205999,44.8959995 130.014001,44.8000004 129.77,44.712 C129.525999,44.6239996 129.208002,44.5360004 128.816,44.448 C128.367998,44.3439995 127.970002,44.2260007 127.622,44.094 C127.273998,43.9619993 126.982001,43.8020009 126.746,43.614 C126.509999,43.4259991 126.330001,43.1960014 126.206,42.924 C126.081999,42.6519986 126.02,42.3240019 126.02,41.94 L126.02,41.916 C126.02,41.5559982 126.091999,41.2260015 126.236,40.926 C126.380001,40.6259985 126.577999,40.3700011 126.83,40.158 C127.082001,39.9459989 127.383998,39.7800006 127.736,39.66 C128.088002,39.5399994 128.471998,39.48 128.888,39.48 C129.504003,39.48 130.057998,39.5699991 130.55,39.75 C131.042002,39.9300009 131.503998,40.1919983 131.936,40.536 L131.144,41.652 C130.759998,41.3719986 130.380002,41.1580007 130.004,41.01 C129.627998,40.8619993 129.248002,40.788 128.864,40.788 C128.431998,40.788 128.096001,40.883999 127.856,41.076 C127.615999,41.268001 127.496,41.5039986 127.496,41.784 L127.496,41.808 C127.496,41.9680008 127.524,42.1099994 127.58,42.234 C127.636,42.3580006 127.737999,42.4699995 127.886,42.57 C128.034001,42.6700005 128.237999,42.7639996 128.498,42.852 C128.758001,42.9400004 129.087998,43.0319995 129.488,43.128 C129.928002,43.2400006 130.317998,43.3639993 130.658,43.5 C130.998002,43.6360007 131.279999,43.801999 131.504,43.998 C131.728001,44.194001 131.897999,44.4219987 132.014,44.682 C132.130001,44.9420013 132.188,45.2439983 132.188,45.588 L132.188,45.612 C132.188,46.004002 132.114001,46.3559984 131.966,46.668 C131.817999,46.9800016 131.612001,47.2439989 131.348,47.46 C131.083999,47.6760011 130.768002,47.8399994 130.4,47.952 C130.031998,48.0640006 129.628002,48.12 129.188,48.12 Z" id="GUARDANDO-DATOS" fill="#000000"></path>
            </g>
        </g>
    </g>
</svg>